(0, 13, 0, 0, 3, 0, 21, 0, 1, 3, 0, 0, 9, 21, 4, 0, 21, 14, 13, 15, 0, 12)	F
(2, 18, 0, 0, 22, 0, 13, 8, 17, 0, 0, 15, 0, 7, 15, 0, 5, 4, 0, 10, 17, 0)	F
(17, 0, 21, 0, 16, 4, 1, 0, 10, 0, 1, 0, 0, 2, 13, 0, 9, 16, 0, 0, 7, 1)	F
(9, 18, 0, 18, 13, 10, 16, 0, 8, 0, 0, 1, 1, 2, 4, 0, 0, 0, 22, 6, 0, 0)	F
(0, 0, 0, 0, 21, 4, 20, 0, 0, 19, 11, 8, 7, 0, 11, 16, 0, 2, 20, 15, 8, 0)	F
(0, 17, 22, 0, 3, 0, 20, 0, 1, 0, 22, 9, 0, 1, 15, 21, 7, 0, 0, 0, 22, 21)	F
(0, 2, 0, 19, 18, 4, 10, 17, 6, 16, 22, 0, 0, 0, 22, 0, 6, 0, 0, 8, 0, 20)	F
(22, 2, 14, 0, 14, 4, 0, 8, 8, 19, 0, 0, 0, 0, 0, 18, 15, 0, 0, 11, 15, 1)	F
(18, 0, 0, 0, 0, 0, 15, 15, 12, 0, 0, 14, 0, 0, 15, 4, 8, 10, 10, 17, 21, 4)	F
(0, 8, 9, 0, 18, 21, 22, 13, 0, 0, 0, 0, 6, 18, 13, 0, 21, 21, 0, 9, 0, 10)	W
(9, 4, 0, 0, 14, 18, 5, 0, 5, 20, 22, 13, 2, 0, 0, 0, 0, 5, 0, 0, 22, 21)	F
(0, 14, 0, 0, 0, 7, 0, 6, 4, 12, 0, 7, 7, 9, 0, 3, 5, 22, 0, 0, 14, 20)	W
(4, 21, 0, 0, 17, 15, 14, 15, 0, 9, 0, 16, 0, 0, 7, 0, 12, 2, 18, 0, 7, 0)	F
(12, 17, 0, 0, 7, 0, 15, 0, 17, 0, 0, 5, 0, 21, 0, 18, 14, 9, 6, 0, 2, 6)	F
(0, 3, 3, 10, 0, 19, 7, 20, 0, 0, 0, 0, 7, 10, 21, 7, 0, 0, 7, 12, 20, 0)	F
(0, 0, 4, 17, 15, 7, 15, 10, 7, 0, 0, 0, 0, 0, 0, 7, 8, 17, 0, 8, 3, 9)	F
(6, 10, 0, 20, 11, 19, 6, 22, 0, 10, 0, 15, 0, 0, 0, 0, 5, 9, 0, 0, 5, 7)	F
(0, 0, 15, 14, 0, 0, 0, 14, 12, 13, 13, 0, 9, 0, 15, 0, 0, 17, 15, 21, 6, 2)	F
(21, 8, 0, 13, 21, 20, 13, 0, 0, 0, 0, 2, 0, 22, 0, 0, 0, 5, 8, 8, 20, 10)	W
(21, 0, 7, 0, 3, 11, 1, 6, 19, 0, 11, 20, 0, 0, 0, 9, 18, 20, 18, 0, 0, 0)	F
(0, 8, 8, 0, 0, 6, 16, 2, 1, 14, 9, 0, 5, 0, 0, 17, 5, 0, 1, 5, 0, 0)	F
(0, 3, 10, 3, 7, 10, 0, 12, 19, 9, 0, 0, 7, 0, 2, 0, 20, 0, 0, 19, 13, 0)	F
(0, 0, 0, 17, 21, 0, 14, 4, 2, 0, 8, 20, 22, 3, 7, 0, 0, 15, 20, 6, 0, 0)	F
(8, 0, 1, 22, 2, 8, 4, 0, 6, 7, 13, 0, 0, 0, 0, 0, 0, 10, 13, 0, 9, 2)	F
(0, 3, 0, 8, 9, 7, 0, 10, 20, 0, 0, 0, 3, 0, 21, 4, 11, 0, 15, 6, 0, 4)	F
(12, 14, 5, 16, 0, 22, 3, 2, 0, 19, 0, 0, 21, 0, 0, 0, 0, 22, 0, 16, 14, 18)	F
(6, 0, 9, 3, 0, 21, 1, 3, 13, 4, 0, 0, 0, 13, 21, 1, 0, 0, 4, 0, 0, 20)	F
(0, 0, 16, 0, 0, 0, 0, 13, 12, 10, 12, 0, 18, 5, 0, 8, 0, 20, 1, 5, 19, 4)	F
(10, 0, 0, 19, 0, 2, 11, 8, 10, 0, 0, 22, 13, 1, 19, 0, 20, 0, 0, 0, 8, 15)	F
(9, 16, 1, 0, 17, 20, 0, 2, 0, 17, 6, 1, 0, 12, 21, 0, 0, 0, 0, 15, 0, 21)	F
(10, 16, 21, 1, 0, 0, 0, 11, 16, 20, 14, 1, 0, 0, 0, 10, 1, 2, 0, 7, 0, 0)	F
(3, 10, 0, 15, 5, 2, 21, 18, 0, 0, 4, 12, 0, 17, 0, 0, 5, 0, 0, 17, 0, 1)	F
(0, 7, 15, 0, 12, 0, 17, 0, 0, 14, 5, 0, 0, 4, 17, 4, 15, 5, 18, 0, 16, 0)	F
(20, 0, 0, 0, 0, 0, 6, 4, 8, 16, 21, 0, 4, 13, 17, 0, 18, 18, 0, 0, 21, 19)	F
(16, 0, 6, 0, 0, 3, 7, 6, 15, 8, 0, 0, 6, 0, 10, 5, 0, 20, 0, 0, 20, 7)	F
(7, 13, 14, 0, 9, 0, 16, 18, 16, 0, 0, 0, 4, 6, 18, 0, 8, 9, 0, 0, 0, 2)	F
(5, 0, 2, 0, 10, 0, 0, 0, 0, 17, 7, 12, 19, 17, 0, 10, 16, 11, 10, 0, 5, 0)	F
(0, 12, 0, 0, 7, 0, 0, 3, 0, 6, 0, 21, 19, 17, 14, 10, 7, 0, 15, 0, 10, 21)	F
(0, 13, 17, 0, 6, 13, 22, 3, 0, 0, 0, 7, 6, 18, 0, 1, 3, 0, 0, 8, 0, 2)	F
(0, 0, 0, 9, 0, 0, 15, 0, 15, 22, 0, 1, 12, 15, 12, 14, 21, 22, 0, 20, 16, 0)	F
(0, 22, 0, 6, 3, 4, 0, 0, 0, 0, 8, 1, 16, 3, 1, 9, 3, 0, 16, 0, 8, 0)	F
(0, 0, 13, 1, 22, 20, 0, 1, 22, 0, 11, 12, 1, 15, 0, 0, 0, 9, 9, 0, 12, 0)	F
(19, 0, 22, 21, 13, 4, 10, 3, 8, 0, 9, 0, 18, 0, 0, 2, 0, 7, 0, 0, 0, 4)	F
(11, 15, 11, 15, 0, 0, 0, 15, 0, 2, 2, 0, 3, 11, 1, 0, 3, 0, 20, 0, 0, 2)	F
(0, 19, 0, 4, 9, 8, 22, 20, 0, 0, 5, 0, 16, 0, 19, 2, 11, 0, 0, 10, 17, 0)	F
(12, 1, 1, 15, 0, 0, 21, 4, 13, 12, 0, 3, 12, 13, 14, 0, 0, 0, 0, 0, 7, 0)	F
(5, 0, 0, 10, 0, 11, 0, 0, 11, 10, 0, 0, 4, 12, 15, 0, 16, 14, 21, 0, 7, 4)	F
(0, 0, 2, 17, 0, 0, 4, 0, 16, 4, 0, 13, 1, 21, 0, 8, 12, 0, 5, 6, 0, 20)	F
(17, 2, 7, 0, 9, 0, 0, 0, 0, 14, 22, 1, 0, 0, 0, 18, 17, 6, 8, 0, 2, 7)	F
(13, 5, 0, 14, 0, 4, 6, 20, 0, 0, 19, 3, 0, 0, 16, 12, 0, 22, 0, 0, 4, 4)	F
(0, 18, 7, 14, 13, 7, 0, 0, 0, 15, 0, 15, 0, 0, 19, 0, 0, 17, 4, 8, 2, 1)	F
(0, 0, 0, 0, 0, 0, 3, 1, 0, 7, 21, 15, 1, 17, 3, 9, 13, 18, 0, 4, 5, 0)	F
(8, 11, 0, 3, 15, 0, 18, 0, 22, 0, 0, 22, 12, 0, 12, 0, 0, 0, 22, 11, 17, 20)	F
(0, 22, 0, 11, 0, 4, 3, 18, 13, 0, 0, 16, 0, 6, 0, 16, 0, 11, 13, 9, 0, 4)	F
(0, 5, 8, 0, 17, 18, 20, 10, 19, 0, 0, 0, 0, 0, 5, 4, 1, 9, 2, 0, 0, 12)	F
(0, 0, 0, 0, 3, 0, 9, 9, 0, 8, 0, 13, 22, 8, 11, 9, 20, 10, 0, 12, 0, 1)	F
(22, 0, 0, 13, 0, 8, 0, 13, 3, 7, 0, 18, 0, 19, 0, 0, 21, 4, 4, 0, 19, 10)	F
(13, 6, 0, 0, 0, 11, 0, 20, 0, 0, 20, 6, 18, 15, 0, 4, 19, 9, 0, 0, 11, 12)	F
(18, 0, 0, 0, 7, 7, 0, 5, 22, 11, 7, 2, 0, 19, 21, 9, 0, 0, 0, 14, 21, 0)	F
(0, 0, 2, 0, 1, 19, 11, 0, 0, 0, 18, 18, 2, 11, 0, 4, 22, 2, 0, 0, 22, 14)	F
(5, 3, 0, 3, 3, 0, 7, 0, 0, 0, 9, 22, 0, 16, 0, 11, 14, 19, 0, 0, 19, 6)	F
(21, 0, 0, 4, 15, 0, 5, 6, 0, 0, 0, 0, 19, 13, 6, 0, 6, 20, 0, 18, 19, 12)	F
(5, 0, 0, 0, 21, 7, 7, 10, 19, 5, 13, 15, 14, 0, 3, 0, 0, 8, 0, 0, 4, 0)	F
(0, 0, 0, 22, 22, 11, 0, 8, 5, 15, 15, 0, 16, 0, 6, 17, 0, 12, 0, 0, 15, 15)	F
(15, 0, 1, 8, 0, 22, 2, 0, 6, 0, 0, 21, 0, 22, 6, 0, 10, 8, 16, 6, 0, 0)	F
(11, 4, 0, 21, 7, 1, 0, 0, 0, 0, 6, 0, 0, 1, 1, 4, 11, 15, 0, 0, 14, 2)	F
(13, 15, 0, 4, 2, 5, 12, 0, 19, 0, 0, 13, 0, 2, 4, 0, 0, 17, 3, 0, 0, 20)	F
(12, 13, 0, 8, 8, 8, 20, 0, 15, 0, 14, 0, 10, 0, 10, 0, 12, 0, 0, 0, 21, 21)	F
(18, 12, 12, 11, 0, 9, 10, 0, 14, 0, 17, 16, 0, 6, 0, 0, 0, 0, 15, 0, 4, 12)	F
(1, 22, 0, 0, 22, 0, 14, 6, 0, 1, 0, 0, 0, 0, 4, 16, 15, 0, 3, 22, 20, 12)	F
(14, 0, 13, 10, 0, 20, 22, 10, 18, 0, 0, 22, 14, 0, 17, 22, 0, 0, 17, 0, 0, 14)	W
(14, 0, 16, 21, 0, 12, 11, 9, 9, 9, 0, 0, 6, 0, 0, 17, 21, 0, 0, 14, 0, 5)	F
(0, 17, 4, 0, 0, 22, 5, 6, 17, 0, 6, 18, 18, 0, 0, 4, 19, 0, 0, 0, 20, 21)	F
(5, 3, 0, 3, 10, 0, 1, 15, 11, 0, 0, 0, 0, 0, 21, 3, 2, 9, 16, 0, 7, 0)	F
(8, 11, 1, 20, 18, 11, 10, 0, 0, 0, 9, 0, 0, 0, 0, 13, 10, 21, 12, 0, 0, 6)	F
(6, 20, 0, 17, 2, 1, 20, 0, 13, 0, 22, 13, 0, 0, 21, 22, 0, 0, 7, 0, 17, 0)	F
(17, 0, 2, 20, 0, 0, 4, 13, 4, 0, 11, 0, 2, 22, 0, 16, 1, 0, 6, 0, 0, 5)	F
(9, 0, 0, 9, 14, 0, 18, 2, 0, 7, 11, 0, 0, 18, 16, 20, 0, 14, 0, 0, 1, 19)	F
(20, 12, 0, 6, 4, 4, 14, 5, 0, 0, 0, 0, 0, 0, 0, 8, 5, 0, 2, 7, 19, 6)	F
(0, 11, 0, 0, 0, 9, 6, 0, 0, 17, 3, 9, 0, 5, 0, 19, 6, 0, 17, 10, 21, 12)	F
(6, 4, 1, 4, 0, 17, 22, 3, 0, 0, 0, 19, 17, 0, 15, 19, 0, 0, 13, 16, 0, 0)	F
(0, 7, 21, 0, 15, 0, 0, 3, 0, 12, 17, 8, 4, 11, 17, 0, 8, 0, 0, 18, 21, 0)	F
(0, 2, 1, 0, 19, 10, 8, 0, 14, 0, 14, 0, 0, 1, 12, 22, 0, 7, 0, 3, 0, 21)	F
(0, 14, 16, 22, 0, 16, 16, 0, 0, 8, 3, 4, 4, 0, 0, 0, 4, 0, 17, 0, 21, 11)	F
(18, 0, 12, 0, 18, 0, 4, 12, 4, 3, 0, 12, 19, 0, 11, 0, 2, 17, 0, 0, 0, 20)	F
(14, 13, 0, 0, 0, 4, 11, 0, 22, 3, 0, 19, 18, 0, 15, 19, 19, 15, 0, 0, 2, 0)	F
(0, 15, 0, 0, 0, 5, 0, 0, 0, 0, 16, 4, 18, 9, 10, 12, 15, 8, 0, 21, 4, 1)	F
(10, 8, 0, 0, 0, 7, 21, 0, 10, 11, 22, 0, 0, 6, 0, 22, 15, 2, 3, 0, 0, 6)	F
(3, 22, 18, 0, 15, 14, 0, 0, 0, 2, 0, 0, 8, 0, 0, 22, 20, 20, 22, 3, 0, 17)	F
(0, 17, 17, 2, 2, 0, 0, 15, 19, 0, 13, 18, 12, 0, 10, 0, 19, 0, 11, 9, 0, 0)	F
(6, 0, 16, 6, 0, 0, 0, 6, 14, 11, 0, 0, 18, 12, 0, 17, 14, 20, 2, 0, 0, 15)	F
(4, 16, 13, 11, 12, 14, 0, 21, 0, 0, 0, 4, 2, 15, 0, 6, 0, 0, 2, 13, 0, 0)	F
(14, 14, 17, 8, 18, 16, 3, 0, 0, 0, 0, 0, 0, 19, 15, 3, 0, 0, 7, 0, 14, 18)	F
(0, 11, 2, 1, 22, 0, 0, 0, 1, 19, 8, 9, 0, 17, 20, 9, 3, 22, 0, 0, 0, 0)	F
(22, 0, 7, 22, 0, 0, 11, 0, 22, 1, 2, 0, 21, 16, 18, 0, 0, 1, 9, 0, 0, 19)	F
(0, 19, 0, 0, 10, 0, 0, 10, 19, 19, 3, 7, 0, 0, 1, 12, 17, 22, 20, 0, 14, 0)	F
(3, 0, 0, 12, 0, 16, 16, 0, 2, 14, 1, 16, 21, 0, 0, 0, 19, 0, 2, 0, 7, 16)	F
(2, 2, 0, 1, 0, 0, 0, 1, 12, 20, 0, 5, 11, 10, 0, 12, 2, 8, 0, 0, 1, 0)	F
(0, 3, 16, 0, 7, 0, 0, 21, 17, 22, 0, 16, 6, 0, 20, 2, 5, 14, 0, 0, 0, 15)	F
(22, 0, 0, 0, 4, 0, 0, 19, 0, 1, 0, 17, 0, 5, 7, 13, 20, 13, 0, 16, 11, 9)	F
(0, 7, 1, 7, 18, 6, 0, 0, 0, 13, 12, 16, 0, 11, 0, 2, 0, 22, 0, 2, 0, 11)	F
(18, 20, 0, 0, 0, 0, 22, 12, 10, 2, 0, 19, 0, 0, 0, 0, 7, 21, 12, 12, 13, 9)	F
(21, 0, 0, 13, 13, 16, 16, 1, 0, 0, 15, 0, 0, 0, 17, 0, 1, 0, 4, 13, 20, 2)	F
(8, 1, 0, 5, 1, 10, 13, 0, 0, 0, 1, 0, 0, 1, 0, 21, 18, 3, 0, 19, 19, 0)	F
(0, 9, 12, 3, 10, 0, 12, 14, 2, 0, 7, 17, 0, 0, 19, 0, 13, 2, 0, 0, 12, 0)	F
(18, 0, 0, 0, 17, 8, 0, 19, 4, 0, 18, 0, 17, 2, 0, 20, 13, 7, 10, 0, 0, 22)	F
(0, 13, 0, 0, 16, 11, 0, 1, 10, 0, 0, 21, 21, 22, 0, 0, 13, 0, 18, 10, 18, 19)	F
(0, 9, 0, 0, 14, 13, 18, 0, 16, 0, 3, 11, 0, 21, 14, 0, 10, 4, 16, 0, 0, 11)	W
(8, 10, 0, 0, 0, 2, 0, 12, 3, 0, 0, 6, 8, 0, 0, 13, 0, 15, 17, 20, 9, 19)	F
(0, 12, 4, 0, 20, 21, 0, 0, 19, 11, 6, 0, 20, 0, 0, 0, 0, 17, 14, 7, 5, 3)	F
(0, 0, 11, 0, 9, 0, 11, 11, 0, 7, 17, 11, 16, 0, 0, 0, 10, 13, 0, 2, 13, 16)	F
(0, 0, 17, 1, 0, 17, 16, 0, 0, 0, 3, 21, 0, 2, 0, 7, 12, 17, 19, 0, 6, 2)	F
(11, 3, 0, 2, 19, 0, 0, 11, 0, 0, 2, 4, 20, 1, 0, 10, 14, 0, 0, 19, 18, 0)	F
(0, 6, 8, 0, 9, 0, 0, 9, 16, 0, 0, 20, 5, 21, 2, 0, 17, 19, 0, 0, 21, 18)	W
(9, 3, 14, 3, 6, 11, 0, 0, 0, 13, 11, 4, 1, 0, 0, 2, 0, 4, 0, 0, 5, 0)	F
(0, 10, 0, 7, 3, 0, 0, 14, 13, 13, 0, 0, 5, 1, 0, 0, 18, 19, 0, 16, 12, 14)	F
(1, 0, 9, 0, 0, 6, 0, 0, 22, 0, 0, 1, 8, 2, 21, 14, 0, 14, 21, 2, 0, 5)	F
(0, 1, 22, 3, 10, 15, 20, 0, 18, 11, 0, 22, 0, 20, 6, 0, 0, 0, 21, 0, 7, 0)	F
(8, 15, 0, 0, 14, 6, 2, 0, 0, 22, 3, 0, 15, 5, 0, 0, 0, 13, 0, 15, 22, 19)	F
(0, 0, 0, 0, 0, 3, 9, 2, 7, 18, 13, 12, 1, 16, 0, 0, 18, 1, 0, 12, 13, 0)	F
(6, 6, 9, 18, 6, 0, 20, 0, 0, 0, 0, 0, 21, 0, 0, 0, 5, 11, 15, 12, 11, 15)	F
(0, 11, 9, 21, 10, 16, 14, 2, 18, 0, 0, 0, 0, 0, 19, 15, 11, 6, 0, 0, 0, 9)	F
(2, 16, 15, 12, 0, 0, 22, 0, 4, 9, 0, 13, 2, 21, 1, 0, 0, 3, 0, 0, 0, 1)	F
(0, 5, 12, 7, 2, 7, 14, 0, 5, 0, 4, 18, 5, 0, 11, 0, 0, 0, 19, 0, 0, 8)	F
(7, 18, 15, 9, 1, 0, 14, 15, 0, 6, 0, 2, 0, 0, 0, 4, 0, 15, 0, 2, 21, 0)	F
(0, 0, 17, 5, 12, 0, 14, 22, 0, 0, 0, 14, 5, 0, 0, 9, 7, 17, 0, 3, 17, 2)	F
(1, 15, 0, 16, 0, 5, 7, 0, 3, 1, 0, 0, 0, 0, 0, 1, 3, 10, 22, 0, 8, 8)	F
(18, 19, 1, 2, 7, 0, 0, 0, 2, 4, 0, 11, 3, 19, 0, 0, 0, 7, 10, 0, 0, 18)	F
(12, 0, 1, 15, 0, 0, 15, 22, 7, 0, 0, 16, 3, 1, 0, 7, 1, 0, 11, 0, 6, 0)	F
(8, 0, 21, 7, 0, 0, 0, 2, 7, 3, 14, 0, 0, 21, 2, 0, 12, 0, 0, 20, 15, 10)	F
(0, 20, 18, 0, 13, 0, 19, 17, 17, 2, 0, 3, 0, 0, 10, 7, 2, 10, 0, 6, 0, 0)	F
(0, 1, 0, 0, 21, 0, 11, 8, 12, 3, 5, 0, 0, 0, 0, 0, 20, 9, 14, 19, 13, 22)	F
(16, 12, 22, 0, 16, 7, 12, 0, 0, 2, 0, 6, 18, 21, 0, 0, 0, 0, 22, 0, 20, 11)	F
(0, 12, 0, 0, 10, 0, 11, 6, 20, 18, 0, 9, 8, 13, 0, 21, 0, 20, 9, 13, 0, 0)	F
(0, 0, 8, 11, 6, 0, 0, 4, 9, 19, 0, 8, 3, 2, 3, 0, 0, 3, 0, 6, 8, 0)	F
(11, 0, 2, 19, 21, 1, 0, 21, 19, 0, 0, 7, 21, 17, 0, 0, 8, 0, 13, 0, 0, 1)	F
(7, 0, 2, 4, 9, 0, 14, 10, 10, 9, 4, 0, 4, 22, 0, 7, 0, 4, 0, 0, 0, 0)	F
(20, 0, 2, 7, 7, 0, 22, 0, 0, 6, 8, 0, 0, 2, 12, 0, 15, 0, 11, 1, 0, 12)	F
(6, 0, 0, 17, 15, 0, 5, 13, 21, 0, 0, 12, 0, 4, 1, 14, 7, 0, 0, 19, 0, 3)	W
(7, 0, 0, 0, 0, 4, 0, 3, 6, 4, 17, 0, 0, 22, 0, 0, 20, 12, 8, 8, 10, 16)	F
(16, 17, 12, 20, 0, 0, 0, 0, 0, 0, 6, 14, 9, 17, 0, 16, 19, 0, 14, 14, 0, 10)	F
(5, 0, 16, 0, 0, 0, 5, 0, 16, 14, 16, 0, 0, 0, 13, 18, 0, 7, 4, 5, 2, 16)	F
(0, 22, 17, 0, 0, 0, 0, 0, 11, 18, 0, 10, 18, 0, 8, 0, 15, 1, 22, 17, 11, 19)	F
(0, 9, 21, 0, 0, 20, 9, 0, 0, 12, 2, 0, 0, 8, 22, 22, 6, 21, 0, 0, 9, 19)	F
(0, 0, 3, 0, 13, 0, 0, 9, 6, 0, 14, 16, 5, 15, 14, 3, 6, 0, 8, 0, 20, 0)	F
(0, 0, 0, 7, 14, 12, 0, 13, 0, 0, 11, 6, 12, 0, 7, 0, 21, 11, 6, 18, 0, 18)	F
(0, 19, 8, 5, 15, 17, 0, 7, 0, 0, 0, 13, 6, 7, 0, 0, 0, 18, 0, 14, 21, 8)	W
(8, 1, 20, 13, 0, 2, 19, 10, 0, 13, 0, 0, 0, 10, 15, 0, 0, 20, 7, 0, 9, 0)	F
(4, 18, 13, 17, 0, 15, 0, 20, 17, 0, 18, 22, 0, 0, 7, 0, 0, 6, 8, 0, 18, 0)	F
(0, 0, 3, 20, 20, 16, 0, 17, 0, 12, 0, 20, 3, 18, 12, 0, 0, 0, 2, 21, 16, 0)	F
(21, 0, 5, 0, 0, 19, 20, 0, 0, 12, 0, 11, 22, 0, 20, 4, 0, 1, 13, 6, 16, 0)	F
(20, 0, 0, 14, 14, 7, 16, 8, 8, 0, 0, 0, 19, 9, 0, 3, 0, 6, 6, 0, 0, 4)	F
(21, 0, 0, 3, 0, 0, 5, 0, 19, 18, 4, 13, 13, 20, 19, 19, 0, 0, 11, 0, 1, 0)	F
(8, 0, 9, 0, 14, 1, 0, 0, 21, 10, 15, 0, 3, 3, 8, 0, 7, 0, 0, 0, 10, 17)	F
(0, 11, 0, 22, 3, 0, 3, 15, 15, 0, 6, 3, 22, 0, 0, 4, 6, 4, 0, 0, 0, 13)	F
(16, 15, 0, 18, 2, 0, 4, 2, 0, 0, 0, 8, 19, 0, 0, 1, 0, 0, 2, 12, 7, 8)	F
(0, 9, 0, 18, 0, 1, 0, 21, 3, 9, 0, 0, 11, 3, 0, 0, 12, 0, 18, 9, 16, 19)	F
(0, 3, 0, 0, 13, 0, 21, 10, 0, 0, 5, 15, 6, 13, 3, 22, 0, 9, 0, 7, 0, 21)	F
(0, 17, 5, 13, 1, 19, 21, 0, 0, 0, 21, 21, 0, 0, 21, 0, 0, 0, 1, 8, 2, 17)	F
(0, 21, 17, 10, 10, 17, 0, 0, 21, 0, 0, 2, 9, 0, 0, 14, 4, 20, 0, 22, 15, 0)	F
(0, 12, 7, 6, 0, 3, 18, 0, 0, 0, 0, 1, 21, 0, 12, 4, 10, 0, 2, 7, 0, 19)	F
(9, 3, 13, 3, 1, 0, 0, 6, 18, 0, 0, 0, 14, 0, 12, 0, 0, 18, 11, 0, 7, 20)	F
(22, 2, 9, 12, 0, 0, 0, 0, 22, 5, 0, 16, 0, 13, 0, 0, 0, 12, 15, 8, 8, 20)	F
(5, 18, 11, 16, 7, 4, 0, 13, 6, 0, 0, 4, 17, 0, 10, 0, 0, 0, 13, 0, 8, 0)	F
(0, 17, 21, 15, 0, 20, 0, 13, 0, 0, 16, 16, 9, 2, 0, 11, 20, 15, 0, 0, 21, 0)	F
(10, 0, 7, 17, 11, 19, 0, 0, 6, 14, 0, 0, 12, 21, 0, 19, 4, 1, 0, 0, 0, 16)	F
(0, 14, 0, 0, 0, 18, 4, 0, 9, 22, 17, 14, 9, 17, 0, 0, 0, 12, 22, 22, 0, 20)	F
(0, 0, 0, 3, 8, 0, 2, 16, 0, 22, 5, 0, 17, 0, 10, 2, 0, 0, 22, 20, 22, 14)	F
(10, 18, 14, 0, 0, 21, 1, 19, 0, 19, 17, 0, 0, 12, 3, 5, 8, 0, 0, 0, 0, 14)	F
(17, 9, 2, 3, 18, 0, 5, 0, 0, 8, 0, 8, 14, 0, 9, 13, 0, 0, 8, 0, 13, 0)	F
(0, 0, 7, 10, 0, 11, 14, 11, 0, 1, 21, 21, 19, 14, 0, 8, 0, 0, 12, 0, 16, 0)	F
(19, 10, 0, 0, 0, 15, 19, 0, 11, 3, 6, 0, 14, 8, 9, 0, 10, 0, 0, 22, 1, 0)	F
(20, 0, 17, 0, 0, 0, 7, 8, 2, 0, 8, 16, 10, 15, 8, 22, 0, 0, 0, 0, 7, 22)	F
(0, 19, 0, 0, 0, 14, 0, 11, 18, 0, 22, 4, 0, 0, 14, 15, 7, 14, 1, 0, 19, 17)	F
(0, 0, 14, 13, 0, 0, 22, 11, 0, 0, 13, 13, 14, 16, 0, 16, 0, 16, 13, 19, 0, 12)	F
(0, 0, 8, 5, 17, 0, 3, 0, 12, 4, 0, 20, 0, 5, 0, 8, 9, 2, 0, 0, 7, 19)	F
(14, 0, 0, 8, 0, 0, 13, 4, 5, 0, 10, 0, 2, 0, 21, 4, 0, 6, 8, 18, 0, 13)	F
(0, 20, 5, 10, 19, 6, 0, 0, 16, 0, 16, 14, 14, 11, 0, 0, 7, 0, 0, 0, 5, 5)	F
(0, 20, 1, 0, 0, 22, 0, 0, 10, 1, 14, 11, 0, 20, 6, 5, 0, 0, 5, 17, 12, 0)	W
(0, 10, 3, 0, 6, 17, 0, 0, 0, 0, 15, 17, 17, 5, 14, 0, 0, 17, 0, 2, 6, 1)	W
(17, 0, 0, 0, 1, 13, 0, 1, 0, 21, 8, 0, 0, 5, 14, 10, 0, 14, 20, 2, 1, 0)	F
(0, 3, 7, 0, 8, 0, 0, 2, 7, 0, 3, 0, 18, 0, 7, 8, 0, 0, 3, 14, 4, 9)	F
(14, 0, 16, 4, 0, 22, 9, 0, 17, 9, 0, 10, 15, 0, 16, 0, 0, 8, 22, 17, 0, 0)	F
(0, 0, 0, 10, 17, 10, 0, 20, 11, 7, 9, 2, 0, 14, 5, 0, 0, 19, 0, 0, 20, 22)	F
(4, 0, 2, 0, 14, 0, 0, 13, 6, 13, 17, 0, 22, 21, 5, 4, 17, 0, 16, 0, 0, 0)	F
(14, 0, 19, 0, 4, 0, 7, 0, 12, 0, 1, 9, 0, 12, 0, 0, 0, 9, 4, 20, 5, 12)	F
(19, 0, 9, 0, 0, 3, 0, 0, 9, 15, 0, 20, 4, 0, 0, 15, 2, 16, 12, 0, 5, 4)	F
(12, 1, 0, 19, 0, 18, 0, 3, 0, 10, 15, 11, 0, 10, 0, 0, 14, 6, 13, 0, 0, 17)	F
(0, 17, 5, 0, 14, 14, 6, 16, 7, 0, 9, 0, 0, 6, 0, 0, 0, 9, 20, 20, 0, 8)	F
(22, 0, 16, 2, 18, 0, 14, 0, 0, 0, 14, 22, 0, 0, 0, 17, 18, 0, 2, 21, 4, 2)	F
(7, 21, 7, 11, 14, 0, 4, 0, 5, 0, 14, 20, 6, 0, 4, 0, 22, 0, 0, 0, 10, 0)	F
(16, 19, 2, 0, 0, 18, 8, 16, 0, 0, 0, 0, 0, 21, 8, 8, 21, 21, 7, 0, 19, 0)	F
(9, 0, 0, 11, 5, 19, 7, 12, 14, 7, 0, 0, 16, 0, 0, 8, 4, 10, 0, 20, 0, 0)	F
(14, 16, 0, 0, 7, 0, 7, 14, 0, 12, 17, 4, 0, 0, 18, 7, 21, 13, 0, 0, 3, 0)	F
(11, 0, 16, 12, 22, 0, 0, 19, 19, 4, 4, 0, 9, 12, 0, 0, 0, 10, 6, 0, 15, 0)	F
(19, 5, 11, 10, 0, 3, 0, 18, 0, 0, 0, 17, 12, 15, 12, 0, 0, 18, 2, 0, 0, 15)	F
(0, 0, 16, 0, 2, 19, 5, 0, 22, 1, 17, 0, 14, 0, 11, 4, 0, 13, 2, 0, 6, 0)	F
(0, 0, 0, 2, 15, 5, 17, 3, 9, 0, 14, 0, 11, 0, 0, 15, 19, 9, 8, 0, 14, 0)	F
(10, 0, 11, 16, 19, 19, 20, 11, 0, 20, 0, 0, 0, 7, 16, 10, 3, 0, 0, 0, 0, 13)	F
(0, 1, 0, 0, 0, 10, 18, 19, 17, 2, 1, 19, 0, 15, 15, 20, 1, 0, 0, 2, 0, 0)	F
(11, 0, 20, 11, 9, 15, 15, 0, 9, 0, 0, 8, 16, 0, 11, 0, 13, 21, 0, 20, 0, 0)	F
(0, 17, 0, 10, 0, 0, 0, 0, 5, 13, 15, 4, 12, 0, 16, 12, 21, 3, 0, 1, 8, 0)	F
(0, 9, 21, 0, 0, 8, 22, 10, 0, 0, 7, 1, 20, 10, 0, 4, 20, 4, 2, 0, 0, 0)	F
(16, 13, 0, 0, 22, 20, 0, 0, 15, 10, 12, 20, 22, 17, 12, 10, 0, 0, 0, 6, 0, 0)	F
(0, 7, 11, 0, 9, 0, 0, 0, 8, 12, 0, 22, 0, 4, 19, 0, 5, 22, 20, 14, 15, 0)	F
(22, 0, 10, 0, 0, 17, 0, 20, 21, 0, 17, 0, 0, 5, 16, 0, 2, 0, 9, 2, 14, 5)	F
(5, 15, 5, 0, 19, 0, 0, 0, 20, 19, 9, 1, 0, 1, 0, 0, 21, 8, 0, 0, 16, 14)	F
(0, 18, 0, 14, 18, 15, 0, 6, 0, 15, 8, 0, 12, 19, 10, 22, 0, 17, 0, 6, 0, 0)	F
(0, 0, 21, 19, 0, 13, 3, 9, 17, 6, 0, 13, 0, 0, 0, 13, 0, 1, 21, 13, 0, 13)	F
(0, 10, 0, 1, 18, 14, 19, 19, 0, 4, 0, 0, 2, 0, 17, 0, 1, 0, 11, 21, 16, 0)	F
(7, 0, 10, 0, 18, 10, 10, 17, 0, 21, 20, 0, 10, 0, 14, 7, 0, 18, 0, 0, 0, 6)	F
(14, 9, 0, 16, 12, 12, 0, 21, 10, 16, 0, 18, 6, 0, 0, 0, 22, 0, 0, 0, 17, 18)	F
(0, 6, 1, 10, 0, 0, 0, 11, 18, 0, 18, 0, 0, 13, 4, 0, 16, 0, 19, 17, 9, 12)	F
(21, 2, 0, 9, 10, 7, 0, 11, 18, 0, 11, 14, 0, 13, 10, 15, 0, 0, 8, 0, 0, 0)	F
(0, 2, 5, 0, 0, 20, 3, 0, 17, 0, 3, 8, 21, 0, 0, 2, 17, 0, 7, 1, 14, 0)	W
(12, 1, 0, 11, 1, 0, 12, 14, 11, 0, 0, 0, 22, 0, 5, 0, 2, 0, 10, 21, 6, 0)	F
(11, 0, 0, 19, 16, 0, 22, 17, 0, 20, 7, 0, 13, 16, 0, 20, 0, 6, 0, 13, 4, 0)	F
(0, 19, 0, 13, 12, 0, 9, 9, 2, 0, 9, 22, 19, 2, 20, 0, 16, 0, 17, 0, 0, 0)	F
(14, 0, 0, 8, 2, 7, 9, 0, 9, 19, 17, 7, 0, 0, 0, 0, 0, 21, 5, 21, 0, 1)	F
(18, 0, 9, 9, 19, 20, 0, 0, 14, 3, 0, 22, 1, 16, 0, 0, 20, 0, 0, 0, 21, 1)	F
(6, 14, 7, 0, 14, 0, 0, 19, 8, 1, 0, 0, 7, 0, 16, 3, 0, 0, 1, 9, 0, 16)	F
(1, 10, 0, 16, 0, 5, 1, 21, 19, 18, 6, 0, 15, 0, 0, 0, 9, 0, 22, 17, 0, 0)	F
(2, 0, 0, 6, 0, 19, 18, 0, 3, 0, 13, 8, 13, 18, 0, 19, 0, 0, 0, 6, 14, 18)	F
(19, 6, 0, 0, 17, 0, 20, 0, 1, 2, 0, 20, 0, 0, 8, 9, 6, 9, 2, 0, 16, 0)	F
(8, 9, 11, 19, 0, 0, 1, 0, 13, 11, 12, 12, 21, 12, 0, 0, 0, 0, 21, 0, 0, 13)	F
(19, 22, 0, 12, 0, 21, 0, 0, 14, 21, 14, 15, 0, 2, 0, 8, 0, 9, 0, 20, 15, 0)	F
(3, 5, 17, 0, 2, 22, 0, 21, 7, 21, 0, 21, 18, 0, 20, 0, 0, 5, 0, 10, 0, 0)	F
(9, 1, 21, 0, 17, 0, 22, 2, 18, 21, 0, 11, 21, 3, 0, 0, 12, 0, 0, 0, 1, 0)	F
(0, 8, 16, 0, 0, 8, 0, 0, 7, 2, 6, 8, 21, 0, 1, 19, 0, 6, 0, 8, 10, 0)	F
(0, 0, 0, 0, 0, 3, 0, 20, 9, 1, 0, 4, 3, 17, 14, 21, 11, 0, 0, 2, 16, 19)	F
(15, 21, 6, 0, 16, 0, 7, 7, 0, 20, 18, 0, 0, 13, 22, 0, 7, 9, 0, 22, 0, 0)	F
(0, 19, 1, 0, 15, 13, 21, 0, 0, 2, 20, 0, 5, 0, 8, 0, 4, 6, 0, 20, 20, 0)	F
(0, 8, 15, 0, 0, 0, 13, 4, 0, 20, 0, 11, 0, 10, 0, 0, 2, 17, 19, 16, 10, 9)	F
(6, 0, 0, 6, 18, 13, 0, 0, 15, 0, 9, 10, 9, 0, 8, 0, 16, 0, 11, 20, 0, 17)	F
(1, 15, 0, 0, 18, 0, 0, 0, 2, 3, 0, 21, 18, 14, 14, 17, 0, 2, 0, 11, 0, 9)	F
(11, 0, 6, 17, 22, 17, 9, 0, 0, 12, 0, 0, 0, 0, 11, 18, 0, 11, 8, 1, 18, 0)	F
(7, 14, 0, 0, 0, 8, 3, 15, 0, 21, 0, 3, 0, 19, 0, 21, 0, 0, 6, 13, 22, 13)	W
(8, 15, 13, 5, 0, 0, 15, 0, 0, 0, 0, 12, 9, 2, 19, 8, 0, 0, 13, 22, 0, 14)	F
(0, 0, 0, 0, 0, 0, 21, 0, 17, 4, 17, 0, 0, 14, 2, 17, 6, 1, 9, 12, 19, 4)	F
(0, 1, 0, 0, 8, 5, 12, 3, 18, 20, 0, 0, 0, 0, 7, 16, 3, 14, 0, 10, 0, 16)	F
(0, 0, 13, 15, 0, 10, 3, 0, 20, 0, 8, 15, 13, 7, 0, 22, 0, 0, 0, 6, 8, 21)	F
(19, 12, 0, 0, 5, 0, 11, 0, 9, 0, 3, 0, 20, 6, 0, 0, 10, 13, 11, 14, 0, 20)	F
(12, 10, 0, 20, 0, 8, 0, 15, 0, 0, 11, 0, 0, 15, 13, 20, 0, 5, 0, 5, 2, 6)	F
(20, 9, 20, 19, 0, 0, 0, 2, 7, 0, 0, 12, 18, 19, 0, 3, 0, 0, 12, 22, 0, 15)	F
(9, 16, 0, 18, 0, 0, 11, 5, 0, 15, 0, 19, 10, 20, 10, 0, 9, 21, 0, 5, 0, 0)	F
(3, 21, 0, 0, 19, 0, 11, 0, 12, 9, 18, 11, 16, 0, 0, 19, 0, 0, 18, 1, 14, 0)	F
(14, 0, 5, 16, 9, 0, 0, 8, 0, 1, 0, 0, 7, 0, 0, 18, 0, 16, 4, 19, 17, 5)	F
(8, 0, 18, 0, 0, 0, 2, 17, 4, 20, 0, 0, 0, 12, 22, 0, 9, 9, 10, 10, 0, 14)	F
(3, 10, 4, 16, 0, 0, 14, 7, 0, 0, 4, 0, 0, 9, 20, 18, 13, 16, 0, 19, 0, 0)	F
(0, 7, 0, 21, 4, 0, 22, 5, 2, 22, 0, 5, 8, 0, 7, 0, 13, 12, 0, 0, 14, 0)	F
(10, 0, 0, 8, 0, 13, 9, 13, 0, 12, 21, 7, 0, 0, 22, 17, 19, 1, 0, 0, 12, 0)	F
(0, 11, 1, 21, 20, 0, 16, 13, 0, 5, 0, 7, 0, 0, 22, 11, 19, 0, 1, 0, 13, 0)	W
(10, 1, 0, 0, 13, 7, 0, 0, 22, 16, 0, 3, 4, 21, 0, 0, 4, 0, 2, 10, 20, 0)	F
(0, 21, 0, 2, 0, 5, 20, 22, 7, 7, 0, 2, 5, 0, 12, 0, 3, 18, 0, 0, 0, 14)	F
(0, 0, 8, 19, 0, 0, 12, 0, 21, 0, 10, 5, 16, 9, 0, 0, 11, 20, 22, 0, 5, 12)	F
(15, 0, 11, 4, 0, 0, 0, 19, 2, 13, 0, 15, 0, 22, 0, 18, 0, 7, 9, 0, 3, 8)	F
(7, 0, 2, 22, 0, 0, 15, 16, 0, 13, 9, 11, 18, 0, 21, 10, 0, 0, 13, 3, 0, 0)	F
(0, 0, 0, 20, 0, 0, 0, 2, 22, 6, 0, 4, 1, 19, 5, 0, 0, 8, 13, 10, 11, 9)	F
(11, 0, 17, 0, 0, 6, 1, 20, 0, 9, 4, 5, 0, 0, 4, 18, 0, 20, 4, 0, 7, 0)	W
(0, 0, 22, 0, 0, 0, 19, 17, 17, 0, 7, 11, 17, 0, 1, 6, 21, 6, 2, 0, 0, 16)	F
(16, 14, 0, 5, 11, 12, 21, 1, 0, 12, 0, 22, 0, 0, 21, 16, 0, 0, 8, 6, 0, 0)	F
(15, 12, 0, 20, 0, 0, 0, 0, 11, 0, 10, 13, 2, 0, 14, 19, 12, 0, 20, 10, 0, 15)	W
(16, 13, 0, 18, 16, 0, 1, 6, 15, 5, 5, 0, 9, 5, 0, 0, 0, 0, 0, 10, 0, 12)	F
(13, 13, 0, 13, 0, 0, 21, 19, 11, 0, 14, 1, 0, 4, 14, 0, 21, 0, 19, 0, 0, 10)	W
(0, 3, 18, 0, 0, 13, 17, 20, 15, 22, 18, 0, 0, 0, 0, 0, 8, 20, 4, 12, 19, 0)	F
(16, 0, 0, 22, 1, 0, 8, 2, 0, 0, 17, 0, 17, 0, 0, 7, 14, 17, 13, 8, 2, 0)	F
(0, 0, 9, 0, 0, 12, 0, 0, 4, 0, 17, 7, 15, 22, 22, 0, 7, 15, 18, 16, 22, 0)	F
(15, 7, 15, 4, 0, 13, 0, 0, 4, 16, 19, 0, 0, 0, 5, 0, 13, 0, 22, 3, 0, 16)	F
(0, 0, 0, 5, 9, 6, 15, 0, 0, 0, 1, 14, 15, 0, 9, 19, 0, 7, 12, 0, 19, 19)	F
(20, 14, 0, 15, 14, 20, 0, 6, 0, 0, 4, 0, 0, 3, 0, 8, 4, 2, 0, 0, 21, 20)	F
(0, 10, 3, 16, 0, 0, 5, 20, 9, 0, 17, 0, 0, 0, 0, 5, 2, 5, 2, 0, 16, 1)	F
(11, 0, 20, 21, 13, 0, 0, 15, 15, 4, 0, 0, 0, 10, 0, 12, 4, 0, 16, 0, 4, 12)	F
(16, 0, 0, 1, 1, 0, 2, 2, 4, 0, 0, 0, 0, 8, 20, 0, 0, 14, 22, 10, 13, 8)	F
(7, 21, 12, 0, 0, 1, 0, 22, 20, 0, 0, 0, 0, 1, 15, 17, 0, 21, 7, 9, 4, 0)	F
(0, 11, 6, 4, 17, 0, 0, 17, 8, 13, 0, 0, 0, 0, 0, 0, 4, 4, 16, 4, 9, 20)	F
(10, 18, 0, 2, 0, 20, 19, 5, 22, 2, 0, 1, 0, 17, 0, 15, 0, 4, 0, 0, 21, 0)	F
(0, 14, 20, 0, 10, 0, 0, 14, 15, 0, 1, 19, 0, 4, 13, 20, 14, 7, 22, 0, 0, 0)	F
(0, 0, 0, 19, 6, 14, 11, 0, 3, 7, 1, 0, 17, 0, 19, 5, 16, 0, 0, 4, 3, 0)	F
(17, 20, 0, 0, 5, 14, 0, 15, 14, 0, 15, 0, 16, 0, 2, 0, 8, 0, 7, 1, 16, 0)	W
(0, 10, 0, 4, 0, 7, 0, 21, 12, 0, 0, 19, 13, 0, 0, 3, 16, 14, 10, 18, 0, 1)	W
(0, 0, 16, 1, 12, 0, 0, 16, 16, 0, 0, 12, 19, 0, 6, 0, 14, 17, 20, 5, 1, 0)	F
(0, 8, 0, 14, 18, 0, 6, 0, 2, 7, 0, 5, 0, 0, 0, 13, 6, 0, 10, 10, 1, 5)	F
(2, 0, 0, 0, 0, 0, 14, 6, 9, 11, 11, 20, 19, 0, 0, 2, 5, 2, 0, 8, 21, 0)	F
(0, 5, 5, 18, 5, 20, 16, 17, 0, 10, 2, 0, 0, 9, 0, 0, 10, 0, 0, 0, 3, 18)	F
(20, 4, 16, 0, 8, 0, 8, 10, 0, 4, 2, 14, 10, 0, 0, 0, 4, 22, 0, 8, 0, 0)	F
(6, 0, 20, 16, 0, 22, 12, 0, 5, 0, 10, 0, 8, 0, 0, 19, 21, 5, 10, 0, 0, 4)	F
(0, 0, 0, 0, 14, 0, 12, 12, 5, 15, 18, 0, 7, 16, 0, 15, 0, 0, 13, 8, 14, 7)	F
(0, 0, 16, 14, 21, 2, 7, 18, 14, 0, 0, 0, 0, 10, 5, 0, 5, 3, 2, 22, 0, 0)	F
(0, 0, 0, 2, 12, 12, 0, 21, 1, 21, 11, 0, 2, 2, 0, 0, 20, 22, 18, 0, 18, 0)	F
(9, 0, 0, 0, 21, 18, 8, 11, 0, 15, 2, 0, 14, 1, 0, 0, 0, 18, 9, 2, 4, 0)	F
(5, 8, 4, 16, 9, 16, 13, 0, 22, 13, 0, 0, 0, 4, 18, 0, 0, 1, 0, 0, 0, 1)	W
(9, 19, 13, 0, 11, 14, 0, 11, 0, 17, 13, 9, 18, 3, 0, 0, 0, 0, 0, 0, 15, 17)	F
(18, 1, 0, 0, 0, 0, 19, 17, 0, 0, 5, 21, 18, 21, 0, 13, 7, 0, 6, 16, 22, 0)	F
(5, 21, 12, 0, 0, 13, 0, 0, 0, 14, 2, 0, 4, 17, 11, 15, 0, 15, 6, 0, 17, 0)	F
(17, 15, 0, 0, 14, 19, 1, 6, 0, 9, 0, 3, 0, 0, 13, 0, 5, 18, 0, 0, 2, 1)	F
(10, 0, 5, 7, 3, 0, 3, 0, 19, 18, 0, 0, 0, 0, 18, 22, 2, 8, 0, 2, 13, 0)	F
(10, 0, 6, 0, 0, 0, 18, 2, 14, 15, 11, 7, 0, 18, 0, 0, 0, 17, 0, 3, 11, 19)	F
(7, 6, 21, 13, 2, 0, 0, 7, 0, 0, 0, 0, 2, 13, 6, 5, 0, 15, 12, 0, 0, 14)	F
(0, 12, 15, 0, 0, 3, 8, 13, 0, 0, 12, 7, 0, 0, 4, 20, 18, 22, 7, 11, 0, 0)	F
(17, 0, 0, 0, 0, 2, 0, 15, 0, 4, 21, 21, 1, 6, 20, 0, 0, 5, 19, 19, 2, 0)	F
(2, 20, 21, 17, 0, 0, 0, 8, 18, 14, 4, 0, 0, 0, 10, 0, 14, 0, 18, 16, 2, 0)	F
(0, 19, 0, 0, 21, 0, 2, 0, 0, 0, 0, 21, 5, 21, 22, 0, 4, 8, 13, 20, 15, 11)	F
(2, 13, 0, 14, 18, 0, 12, 16, 13, 0, 0, 19, 8, 0, 0, 0, 0, 11, 9, 5, 10, 0)	F
(0, 0, 0, 0, 0, 0, 10, 0, 19, 12, 19, 0, 13, 13, 14, 1, 5, 19, 21, 0, 16, 16)	F
(3, 0, 20, 5, 20, 16, 4, 2, 4, 0, 0, 20, 0, 0, 0, 1, 9, 0, 4, 0, 8, 0)	F
(0, 16, 12, 14, 0, 6, 2, 0, 9, 19, 1, 7, 0, 0, 0, 1, 0, 0, 11, 13, 17, 0)	F
(6, 22, 0, 0, 0, 4, 9, 0, 18, 4, 22, 15, 6, 0, 0, 13, 22, 0, 2, 0, 0, 6)	F
(4, 20, 0, 14, 4, 16, 8, 0, 0, 0, 18, 19, 0, 10, 0, 17, 0, 17, 0, 0, 1, 21)	W
(0, 3, 8, 2, 8, 10, 0, 0, 22, 3, 0, 0, 15, 0, 0, 21, 5, 19, 21, 0, 0, 15)	F
(14, 7, 17, 0, 17, 0, 0, 1, 16, 0, 7, 0, 8, 0, 9, 0, 0, 9, 0, 12, 1, 22)	F
(15, 2, 0, 0, 11, 13, 22, 8, 0, 0, 0, 0, 8, 11, 13, 10, 0, 0, 0, 11, 12, 6)	F
(0, 11, 0, 0, 0, 0, 16, 19, 13, 0, 17, 1, 15, 12, 20, 19, 0, 0, 12, 18, 0, 17)	F
(5, 0, 0, 20, 0, 22, 18, 9, 0, 0, 5, 7, 1, 20, 0, 4, 0, 0, 12, 11, 0, 21)	F
(0, 0, 4, 2, 6, 0, 0, 18, 18, 14, 0, 0, 0, 1, 0, 11, 10, 0, 1, 16, 18, 16)	W
(0, 0, 9, 0, 17, 15, 19, 0, 0, 21, 14, 0, 0, 16, 11, 17, 0, 1, 16, 4, 0, 14)	F
(0, 7, 0, 0, 15, 20, 6, 2, 7, 11, 0, 17, 0, 12, 15, 14, 17, 4, 0, 0, 0, 0)	F
(5, 8, 0, 0, 14, 7, 20, 0, 22, 16, 0, 22, 21, 6, 9, 0, 0, 0, 21, 10, 0, 0)	F
(22, 8, 1, 0, 5, 5, 17, 0, 0, 0, 1, 0, 11, 0, 0, 21, 7, 20, 16, 0, 9, 0)	F
(20, 18, 15, 16, 0, 0, 0, 14, 22, 12, 0, 22, 0, 0, 16, 0, 5, 11, 2, 19, 0, 0)	F
(0, 22, 0, 0, 10, 3, 0, 20, 19, 6, 11, 16, 0, 8, 22, 0, 0, 18, 0, 8, 8, 0)	F
(12, 10, 2, 0, 2, 0, 21, 0, 0, 11, 1, 0, 9, 6, 6, 0, 15, 1, 9, 0, 0, 0)	W
(0, 5, 12, 0, 0, 7, 0, 0, 17, 0, 0, 5, 10, 18, 17, 11, 0, 7, 19, 15, 12, 0)	F
(16, 0, 1, 0, 12, 6, 0, 0, 0, 13, 7, 0, 2, 12, 4, 20, 12, 22, 0, 0, 0, 8)	F
(5, 0, 14, 10, 0, 3, 1, 0, 0, 1, 20, 13, 0, 0, 11, 0, 0, 0, 5, 22, 9, 22)	F
(0, 0, 0, 0, 22, 15, 3, 0, 9, 6, 20, 1, 10, 9, 19, 5, 0, 0, 0, 5, 0, 7)	F
(0, 0, 0, 22, 14, 13, 19, 0, 22, 0, 13, 0, 19, 13, 13, 6, 0, 13, 15, 5, 0, 0)	F
(0, 10, 0, 8, 0, 14, 0, 8, 0, 16, 0, 9, 0, 0, 2, 19, 15, 13, 4, 20, 0, 15)	F
(4, 0, 7, 14, 12, 14, 13, 16, 0, 0, 17, 0, 19, 0, 0, 0, 0, 15, 5, 21, 0, 3)	F
(18, 5, 0, 0, 15, 18, 16, 0, 0, 3, 2, 0, 1, 0, 4, 0, 20, 1, 0, 18, 0, 22)	F
(20, 20, 1, 0, 8, 8, 15, 21, 0, 0, 15, 1, 0, 0, 14, 20, 17, 0, 0, 21, 0, 0)	F
(0, 1, 0, 3, 0, 20, 9, 5, 0, 0, 14, 0, 10, 15, 17, 16, 0, 5, 0, 5, 0, 12)	W
(0, 19, 0, 0, 5, 22, 10, 0, 15, 9, 0, 3, 0, 5, 0, 7, 0, 8, 0, 14, 6, 1)	W
(22, 3, 0, 0, 6, 0, 0, 0, 15, 22, 0, 16, 6, 1, 0, 3, 13, 10, 0, 0, 9, 7)	F
(17, 0, 22, 0, 5, 16, 0, 16, 0, 0, 3, 0, 0, 14, 0, 0, 11, 16, 14, 16, 5, 15)	F
(11, 0, 9, 12, 0, 17, 10, 0, 16, 0, 0, 0, 0, 0, 10, 18, 0, 5, 8, 11, 14, 3)	F
(4, 0, 14, 22, 13, 0, 0, 16, 21, 3, 8, 5, 0, 0, 0, 10, 10, 0, 0, 0, 12, 17)	W
(13, 2, 0, 11, 0, 0, 6, 5, 9, 14, 20, 16, 5, 0, 8, 0, 8, 18, 0, 0, 0, 0)	F
(17, 0, 21, 10, 0, 0, 3, 17, 0, 0, 19, 0, 3, 3, 0, 2, 9, 7, 0, 14, 0, 20)	F
(0, 0, 22, 19, 2, 12, 8, 0, 22, 22, 0, 13, 0, 0, 0, 18, 3, 0, 11, 10, 9, 0)	F
(20, 0, 12, 15, 11, 7, 19, 20, 0, 15, 0, 21, 0, 12, 4, 0, 0, 4, 0, 0, 0, 18)	F
(0, 0, 14, 0, 0, 8, 0, 12, 16, 0, 18, 20, 3, 1, 0, 0, 7, 11, 20, 13, 15, 0)	F
(12, 7, 3, 0, 4, 12, 0, 21, 20, 0, 0, 0, 0, 0, 12, 0, 8, 10, 4, 13, 1, 0)	F
(10, 10, 17, 0, 0, 8, 17, 0, 3, 0, 0, 6, 8, 19, 0, 0, 22, 10, 0, 3, 20, 0)	F
(0, 0, 0, 2, 0, 2, 14, 0, 2, 0, 21, 18, 0, 9, 8, 20, 14, 18, 9, 14, 0, 0)	F
(14, 0, 8, 11, 7, 13, 0, 0, 17, 16, 0, 0, 20, 0, 13, 0, 0, 11, 14, 0, 14, 15)	F
(20, 0, 0, 0, 5, 14, 0, 0, 21, 9, 0, 9, 5, 12, 17, 0, 8, 0, 4, 0, 13, 4)	W
(1, 18, 8, 22, 0, 0, 0, 0, 22, 16, 10, 0, 5, 22, 4, 3, 20, 0, 0, 2, 0, 0)	F
(17, 21, 0, 0, 9, 22, 0, 6, 7, 22, 0, 0, 11, 21, 0, 0, 16, 0, 9, 0, 13, 12)	F
(13, 0, 22, 19, 0, 12, 5, 15, 1, 0, 10, 0, 8, 0, 0, 7, 13, 0, 21, 0, 3, 0)	F
(0, 0, 8, 5, 0, 9, 11, 18, 3, 0, 15, 0, 2, 0, 17, 0, 11, 0, 19, 7, 0, 14)	F
(3, 9, 21, 0, 0, 19, 22, 0, 3, 4, 21, 22, 0, 0, 0, 8, 0, 20, 0, 0, 22, 18)	F
(5, 18, 12, 10, 0, 22, 9, 4, 0, 0, 1, 0, 4, 3, 22, 5, 0, 0, 0, 16, 0, 0)	F
(0, 0, 11, 0, 0, 9, 0, 15, 0, 10, 14, 3, 2, 18, 0, 18, 0, 6, 7, 5, 0, 18)	F
(6, 0, 5, 20, 0, 14, 0, 6, 7, 0, 1, 0, 0, 0, 5, 0, 8, 18, 0, 18, 3, 9)	F
(22, 0, 0, 13, 2, 17, 0, 0, 19, 0, 8, 1, 0, 0, 0, 21, 12, 13, 0, 16, 7, 5)	F
(11, 0, 21, 22, 1, 0, 0, 16, 0, 15, 0, 16, 0, 10, 0, 16, 12, 0, 15, 18, 3, 0)	F
(8, 2, 0, 6, 0, 0, 0, 8, 17, 11, 15, 0, 0, 0, 11, 5, 6, 21, 6, 0, 0, 11)	W
(0, 14, 0, 0, 12, 0, 16, 15, 12, 0, 0, 8, 8, 0, 21, 0, 10, 10, 6, 8, 15, 0)	W
(0, 20, 5, 8, 0, 1, 0, 6, 0, 4, 18, 21, 16, 0, 0, 21, 13, 0, 0, 13, 20, 0)	F
(11, 0, 13, 0, 7, 11, 12, 8, 2, 0, 0, 0, 1, 16, 8, 0, 0, 9, 0, 0, 10, 3)	F
(0, 0, 10, 19, 0, 0, 4, 17, 0, 1, 14, 18, 0, 19, 0, 10, 10, 0, 16, 1, 0, 17)	F
(11, 7, 4, 13, 0, 20, 0, 1, 12, 0, 6, 0, 13, 10, 0, 0, 0, 9, 0, 3, 0, 7)	F
(0, 20, 9, 15, 17, 0, 0, 0, 0, 3, 0, 0, 15, 19, 8, 7, 22, 17, 0, 19, 15, 0)	F
(0, 5, 8, 20, 1, 4, 13, 0, 18, 21, 0, 17, 0, 0, 18, 0, 13, 11, 0, 0, 0, 14)	F
(16, 0, 17, 0, 16, 6, 17, 0, 20, 17, 16, 0, 21, 0, 22, 0, 0, 13, 0, 0, 4, 7)	F
(19, 5, 0, 9, 0, 0, 0, 0, 8, 17, 0, 12, 20, 3, 16, 2, 3, 20, 0, 0, 1, 0)	F
(21, 12, 5, 11, 11, 9, 0, 0, 20, 13, 0, 4, 15, 0, 3, 0, 21, 5, 0, 0, 0, 0)	W
(9, 15, 0, 21, 0, 19, 15, 3, 1, 0, 0, 11, 16, 0, 1, 13, 14, 0, 0, 3, 0, 0)	F
(0, 12, 6, 0, 0, 1, 0, 15, 1, 0, 10, 12, 17, 12, 0, 0, 2, 5, 3, 20, 0, 0)	F
(22, 0, 0, 0, 3, 0, 10, 0, 21, 5, 0, 1, 2, 18, 9, 0, 11, 20, 0, 15, 10, 0)	F
(0, 0, 4, 0, 18, 0, 0, 7, 2, 18, 22, 20, 17, 17, 19, 0, 17, 0, 0, 16, 1, 0)	F
(16, 0, 8, 8, 0, 0, 6, 0, 0, 17, 0, 19, 0, 2, 9, 0, 16, 0, 14, 21, 13, 14)	W
(13, 10, 8, 16, 17, 0, 0, 4, 0, 0, 14, 6, 18, 12, 0, 0, 4, 2, 7, 0, 0, 0)	F
(0, 0, 3, 0, 17, 9, 21, 0, 0, 0, 0, 4, 7, 19, 17, 19, 22, 1, 0, 19, 12, 0)	W
(22, 17, 14, 21, 12, 0, 0, 7, 0, 0, 12, 16, 2, 17, 0, 10, 0, 0, 0, 0, 1, 9)	F
(20, 7, 0, 1, 0, 22, 4, 19, 4, 22, 0, 1, 0, 0, 16, 9, 5, 0, 0, 11, 0, 0)	F
(15, 19, 20, 2, 0, 12, 21, 0, 0, 15, 20, 22, 0, 8, 11, 0, 0, 0, 0, 6, 0, 16)	F
(21, 0, 0, 0, 2, 3, 2, 22, 12, 12, 0, 21, 0, 8, 0, 0, 13, 0, 7, 14, 8, 0)	F
(9, 7, 1, 0, 0, 0, 0, 5, 14, 0, 3, 0, 0, 21, 7, 0, 21, 0, 12, 17, 12, 12)	F
(20, 3, 0, 0, 21, 19, 16, 0, 0, 0, 16, 0, 8, 0, 7, 14, 20, 2, 11, 0, 9, 0)	F
(8, 0, 0, 4, 18, 19, 7, 0, 12, 11, 13, 5, 0, 0, 0, 0, 0, 0, 7, 22, 14, 15)	F
(0, 9, 3, 6, 8, 17, 0, 8, 6, 0, 9, 0, 0, 0, 19, 0, 1, 16, 0, 10, 19, 0)	F
(0, 0, 4, 0, 0, 3, 17, 5, 4, 0, 21, 16, 14, 0, 16, 21, 0, 12, 0, 22, 12, 0)	F
(10, 16, 9, 0, 0, 9, 0, 12, 0, 0, 4, 2, 8, 0, 14, 5, 0, 20, 0, 2, 3, 0)	F
(16, 13, 0, 0, 12, 11, 13, 16, 13, 2, 0, 0, 0, 1, 19, 16, 0, 0, 0, 0, 18, 17)	F
(6, 6, 0, 0, 0, 0, 9, 0, 22, 0, 0, 19, 22, 0, 13, 6, 2, 0, 21, 5, 15, 12)	F
(1, 0, 1, 20, 7, 12, 20, 3, 0, 8, 0, 0, 0, 8, 8, 0, 0, 11, 0, 0, 17, 5)	F
(14, 0, 0, 5, 15, 0, 4, 19, 0, 0, 0, 11, 12, 1, 19, 0, 5, 17, 0, 17, 0, 14)	F
(5, 14, 0, 20, 14, 10, 9, 7, 0, 0, 7, 2, 0, 2, 0, 0, 0, 5, 15, 13, 0, 0)	F
(0, 14, 11, 0, 22, 0, 4, 0, 12, 14, 0, 16, 0, 3, 10, 4, 14, 18, 0, 11, 0, 0)	F
(0, 0, 15, 0, 12, 0, 14, 12, 13, 0, 5, 11, 0, 16, 0, 12, 13, 0, 1, 15, 6, 0)	F
(15, 13, 18, 0, 0, 19, 0, 7, 0, 0, 15, 13, 3, 9, 6, 5, 22, 4, 0, 0, 0, 0)	W
(8, 6, 0, 3, 5, 0, 0, 0, 7, 9, 22, 1, 0, 0, 5, 16, 3, 14, 0, 0, 20, 0)	W
(0, 17, 0, 0, 19, 0, 0, 0, 11, 20, 10, 0, 13, 20, 0, 0, 17, 10, 18, 1, 10, 7)	F
(22, 5, 8, 19, 0, 16, 0, 21, 12, 6, 0, 0, 0, 14, 0, 0, 14, 0, 19, 20, 0, 15)	F
(13, 8, 0, 0, 0, 3, 14, 0, 7, 13, 4, 0, 15, 0, 19, 0, 0, 0, 13, 21, 9, 9)	F
(3, 2, 13, 1, 10, 17, 0, 0, 0, 0, 22, 17, 13, 0, 9, 0, 3, 14, 0, 0, 0, 18)	F
(0, 6, 0, 1, 0, 6, 0, 0, 19, 3, 0, 11, 0, 3, 9, 0, 0, 17, 17, 22, 2, 8)	F
(0, 0, 1, 0, 11, 6, 0, 5, 7, 19, 6, 2, 12, 1, 5, 0, 0, 0, 0, 0, 7, 8)	F
(0, 20, 0, 0, 13, 0, 21, 1, 4, 4, 0, 20, 21, 10, 5, 0, 8, 20, 0, 0, 0, 1)	F
(19, 0, 16, 0, 0, 17, 13, 15, 19, 17, 0, 0, 16, 9, 0, 12, 21, 0, 0, 0, 19, 13)	F
(18, 0, 13, 4, 0, 13, 13, 3, 0, 12, 0, 12, 0, 0, 13, 15, 0, 12, 0, 14, 0, 15)	F
(7, 0, 1, 10, 4, 8, 0, 0, 14, 0, 2, 0, 14, 0, 1, 0, 4, 0, 18, 0, 10, 21)	F
(0, 0, 4, 0, 14, 14, 0, 0, 21, 0, 1, 18, 3, 3, 0, 18, 1, 0, 0, 3, 3, 9)	F
(0, 2, 1, 0, 10, 22, 14, 0, 0, 0, 0, 0, 14, 3, 2, 7, 20, 6, 0, 11, 0, 21)	F
(0, 9, 13, 8, 13, 0, 8, 0, 21, 0, 0, 12, 2, 0, 0, 19, 0, 15, 11, 0, 17, 21)	F
(14, 0, 0, 8, 0, 0, 0, 0, 21, 11, 17, 0, 0, 11, 1, 7, 5, 3, 8, 18, 7, 0)	F
(9, 9, 11, 13, 4, 10, 0, 1, 11, 0, 0, 0, 6, 0, 3, 21, 0, 0, 4, 0, 14, 0)	F
(0, 12, 0, 20, 2, 0, 0, 19, 4, 16, 11, 17, 6, 4, 0, 0, 0, 0, 20, 21, 0, 22)	F
(0, 19, 5, 11, 11, 18, 11, 0, 0, 20, 0, 4, 0, 17, 0, 6, 0, 12, 2, 0, 0, 7)	F
(0, 1, 0, 0, 19, 17, 7, 0, 13, 0, 7, 21, 8, 13, 0, 0, 17, 19, 6, 0, 4, 0)	F
(18, 0, 2, 0, 0, 0, 18, 0, 20, 0, 0, 22, 4, 0, 9, 9, 4, 7, 22, 15, 22, 0)	F
(0, 6, 9, 5, 12, 0, 20, 10, 12, 0, 17, 0, 0, 7, 0, 20, 0, 0, 0, 12, 15, 9)	F
(22, 0, 0, 12, 13, 11, 16, 11, 0, 22, 0, 0, 0, 17, 9, 18, 19, 0, 0, 0, 22, 11)	F
(0, 9, 9, 0, 6, 0, 17, 21, 12, 0, 20, 14, 14, 0, 1, 22, 1, 11, 0, 0, 0, 0)	W
(3, 9, 20, 0, 14, 16, 0, 10, 0, 20, 15, 0, 0, 4, 17, 0, 9, 11, 0, 0, 0, 18)	F
(20, 7, 6, 14, 8, 0, 0, 17, 22, 0, 0, 1, 0, 0, 6, 0, 16, 0, 0, 7, 1, 19)	F
(15, 18, 2, 0, 0, 1, 18, 0, 16, 22, 21, 19, 14, 0, 11, 0, 0, 0, 8, 0, 0, 19)	F
(0, 0, 0, 0, 6, 0, 0, 19, 0, 2, 10, 1, 0, 6, 10, 2, 0, 17, 14, 16, 13, 20)	F
(20, 0, 0, 2, 7, 15, 4, 14, 0, 0, 0, 18, 0, 8, 9, 14, 0, 2, 8, 0, 19, 0)	F
(0, 0, 18, 7, 17, 0, 0, 0, 0, 0, 3, 9, 0, 16, 13, 21, 12, 4, 0, 2, 11, 1)	F
(17, 0, 17, 16, 3, 0, 16, 0, 4, 22, 6, 1, 0, 14, 0, 21, 0, 0, 6, 0, 0, 21)	F
(21, 13, 6, 22, 0, 4, 15, 0, 0, 10, 0, 1, 4, 15, 0, 10, 0, 20, 0, 0, 0, 22)	F
(15, 10, 3, 11, 16, 0, 0, 0, 0, 15, 3, 4, 4, 17, 0, 22, 13, 0, 0, 0, 10, 0)	F
(16, 11, 15, 0, 21, 20, 0, 0, 0, 19, 5, 3, 6, 0, 0, 2, 0, 0, 10, 20, 12, 0)	F
(4, 0, 0, 15, 0, 0, 0, 0, 13, 1, 19, 18, 0, 22, 0, 4, 0, 2, 13, 6, 4, 16)	F
(5, 0, 3, 14, 10, 6, 0, 0, 0, 7, 16, 7, 13, 0, 15, 0, 6, 0, 6, 0, 22, 0)	F
(11, 22, 16, 21, 0, 13, 0, 17, 2, 0, 2, 0, 0, 13, 0, 4, 0, 11, 0, 0, 16, 11)	W
(15, 0, 0, 4, 0, 19, 4, 0, 0, 14, 2, 11, 9, 0, 19, 5, 0, 8, 21, 0, 7, 0)	F
(2, 13, 0, 3, 6, 12, 5, 0, 0, 9, 14, 0, 8, 0, 10, 0, 0, 0, 10, 1, 8, 0)	F
(8, 0, 6, 12, 15, 15, 14, 0, 0, 0, 16, 1, 0, 0, 0, 20, 1, 0, 4, 6, 0, 2)	F
(17, 4, 10, 22, 10, 0, 0, 2, 1, 22, 0, 0, 0, 0, 5, 5, 0, 18, 13, 0, 8, 0)	F
(2, 0, 16, 0, 5, 0, 10, 20, 13, 16, 1, 0, 0, 1, 0, 0, 19, 13, 11, 9, 0, 0)	F
(9, 7, 11, 0, 0, 0, 0, 9, 11, 0, 1, 1, 9, 20, 5, 0, 10, 0, 0, 0, 4, 10)	W
(0, 0, 5, 6, 0, 15, 0, 0, 0, 0, 17, 3, 5, 14, 20, 16, 0, 0, 13, 17, 13, 16)	F
