(0, 0, 4*a, 4*a, 3*a, 0, 2*a + 3, 2*a + 1, 2, 0, 1, 0, 0, 4*a + 1, 0, 0, 0, 0, 0, 2*a + 1, 0, 3*a + 2, 0, 0)	F
(0, 0, a + 3, 2, 3*a + 2, 0, 3*a + 1, 0, 0, 0, 3*a + 2, 2*a + 3, 4*a + 4, 0, 0, 4*a + 1, 2*a + 2, 0, 0, 0, 0, 3*a, 0, 0)	F
(2*a, 0, 0, 0, 0, 0, 2*a, 0, 4*a + 3, 0, 0, 0, 0, 0, 0, 3*a + 1, 0, 4*a + 1, 4*a + 1, a + 4, 3, a + 4, 4*a + 1, 0)	W
(4*a + 3, 2, 0, 0, 4*a + 1, 0, 0, 0, 0, 2*a + 4, 0, 0, 0, 4*a + 2, a + 3, 0, 3*a + 3, 0, 2*a, 0, 0, 0, 1, 4*a + 2)	F
(0, 3*a, 0, 0, 2*a, a + 1, 2*a, 0, 0, 0, 0, 0, 0, a + 3, 0, 2*a, 0, a + 2, a + 2, 4*a + 2, 0, 2*a + 4, 0, 0)	F
(0, 0, a + 3, 4*a + 2, a + 2, 0, a + 2, 0, 0, 2*a + 4, 0, a, a, 0, 0, 0, 4*a + 2, 0, 0, 1, 0, 0, a + 4, 0)	F
(0, 3*a + 1, 0, 3, 2*a, 0, 0, 0, 0, 0, 3*a + 1, a, 4*a + 4, a + 2, 0, 0, 4, 0, 3, 0, 4*a + 3, 0, 0, 0)	F
(0, 0, a, 2*a, 0, 0, 0, 0, 0, 4*a + 3, 3, 0, a, 0, 0, 0, 3*a, 4, 0, 2*a + 2, 3*a + 2, 0, 0, 1)	F
(0, 0, 0, 2*a + 4, 0, a + 4, 0, 0, 0, a + 3, 0, 2, a, 3, 0, 0, 0, 4, 2*a + 2, 0, 0, 2*a + 3, a + 2, 0)	F
(0, a + 1, 0, 0, 4*a, 0, 0, a, 0, 0, 2*a + 4, 4, 0, 3*a, 3*a + 2, 2*a + 1, 0, 0, 0, 0, 0, 1, 0, a + 2)	F
(0, 2, 3*a + 2, 0, 0, 0, 3, 0, 0, a, 0, 0, 4*a + 4, 0, a, 4*a + 2, 1, 0, 0, 0, 0, a + 3, 0, 2*a)	F
(0, 4, 0, 1, 0, 0, 0, 3*a + 1, 3*a + 4, a + 3, 2, 4, 0, a + 4, 0, 0, 4*a + 3, 0, 0, 0, 0, 0, 3*a + 4, 0)	F
(4*a + 1, 0, 3*a, a, 0, 0, 0, 0, 3*a, a + 4, 0, 0, 0, 0, 1, a, 0, 0, 4*a + 3, 0, 4*a + 2, 0, 0, 1)	F
(0, 0, 0, 0, 0, 0, 3*a + 1, 0, 3*a + 2, 2*a + 1, 3*a + 3, 0, 0, 2, 4, 0, 0, 0, 4*a + 3, 0, 0, 3*a + 3, a + 1, a + 3)	W
(3*a, 0, 0, 0, 0, 0, 0, 0, 2*a + 3, 3*a + 1, 3*a, 4*a + 4, 4*a + 2, 3, 0, 0, 3*a + 1, 0, 0, 4*a + 1, 0, 0, 0, a + 3)	F
(0, 3*a + 2, 3*a + 3, 2*a, 0, 0, 0, 0, 0, 0, 0, 0, 0, 4*a + 2, 0, 0, 3*a + 3, 4*a + 1, 3*a, 4*a, 4*a + 1, 0, 4*a, 0)	F
(4*a + 3, 0, a + 4, a + 3, 0, 4*a + 2, a + 2, 0, 2*a + 1, 0, 0, 0, 0, a + 4, 0, 4*a + 4, a + 3, 0, 0, 3*a, 0, 0, 0, 0)	F
(0, 3*a + 4, 0, 0, a + 2, 0, 0, 0, 0, 3*a + 2, 0, 0, 0, 0, 0, 4*a + 1, 4*a + 3, 2*a + 3, 2*a, 0, 3*a + 1, 0, 2*a + 2, 3*a + 1)	F
(3*a + 4, 0, 0, 0, 0, 3*a + 1, 0, 0, 0, 3, 4*a + 2, 0, 3*a, 0, 0, 1, 0, 0, a + 2, a + 2, 0, 4*a, 3, 0)	F
(0, 4*a + 1, 2*a + 2, 0, 0, 0, 1, a + 1, a + 4, 0, 0, 0, 2*a, 0, 3*a, 0, a, 0, a + 2, 0, 0, 0, 2*a + 1, 0)	F
(0, 4, 0, 2*a + 3, 0, 4*a + 1, 2*a, 0, 2*a, 0, 2*a + 3, 4*a + 2, 0, 0, 4*a, 0, 0, 0, 4*a + 3, 2*a + 1, 0, 0, 0, 0)	F
(4, 4*a + 2, 4, a + 3, 0, 0, 0, 3*a + 2, 1, 0, 0, 0, 2*a + 1, 0, a, 0, 0, 3*a, 0, 3*a + 4, 0, 0, 0, 0)	F
(0, 0, 0, 0, 0, 2*a + 2, 0, 0, 2*a, 0, 0, 0, 3*a + 2, 0, 0, 0, 2*a + 4, 4*a, 4*a + 1, a + 2, 0, 3*a + 1, 2*a + 3, a)	F
(0, 3*a, 3, 0, 0, 3*a + 1, 0, 0, 0, a, 0, 4*a + 2, 0, 0, 4*a + 1, 3*a + 2, 2*a, 4*a + 4, 0, 0, 2*a + 2, 0, 0, 0)	F
(0, 0, 0, 0, 2*a, 0, 0, a + 1, 3*a + 4, a, 2*a + 2, 0, 0, a, a, 0, 0, 0, 0, 2*a + 3, a + 2, 0, 0, 4*a + 4)	F
(0, a + 1, 0, 3*a, 0, 2*a + 2, 0, 0, a + 4, 0, 4*a + 1, 0, a + 4, 3, 3, 3*a + 1, 0, 0, 0, 0, 0, 0, 0, 4*a)	F
(0, 0, 3*a + 3, 0, 4*a + 4, 4*a, 4*a, 0, 2*a + 2, 0, 0, 0, 0, 0, 0, 2*a + 2, 4*a, 0, 0, 2*a + 1, 0, 2*a + 3, 0, 3*a + 1)	F
(0, 0, 4*a + 3, 0, 0, 0, a + 3, a + 2, 0, 0, 0, 4*a + 4, a + 1, 0, 0, 0, 4*a + 2, 2*a, 0, a + 1, 0, 0, 2*a + 4, 2*a + 4)	F
(2*a, 0, 0, 0, 0, 4*a, 2*a + 3, a + 2, 0, 0, 3*a + 3, 0, 0, 2*a + 1, 0, 2, 2*a + 1, 0, 2*a, 4*a + 3, 0, 0, 0, 0)	F
(0, 4*a + 3, 0, 1, 3, 0, 0, 2*a, 0, 4, 3*a + 1, 0, 4*a + 3, 1, 0, 0, 0, 0, 0, 0, a + 1, 0, 0, 4*a + 2)	F
(0, 0, 0, 0, 4*a + 3, 0, 0, a + 4, 2, 0, 3*a, 0, 2*a, 0, 0, a + 1, 0, 0, 4, a + 1, a + 4, 0, 0, 1)	F
(2*a + 1, 0, 0, 0, 2*a, 3*a + 1, 0, 0, 2*a + 4, a + 4, 3*a + 4, 0, 0, 2*a + 3, 0, a + 1, 4, 0, 0, 0, 0, a + 1, 0, 0)	F
(0, 0, 0, 0, 2*a, 0, a + 3, 4*a + 1, 0, 0, 0, 2*a, 2*a + 1, 4*a + 3, 0, 4*a + 2, 0, 3*a, 2*a + 2, 0, 2*a + 2, 0, 0, 0)	F
(0, 0, 4, 2*a + 3, 0, 0, 0, 0, 3*a, 0, 0, 0, 4, 2*a + 4, a + 2, 4*a + 2, 3*a + 2, 0, 0, 2*a, 2*a, 0, 0, 0)	F
(a + 3, 0, 0, 2*a + 1, a + 4, 0, 2*a, 0, 0, 0, 2*a + 4, 0, 0, 0, 2*a + 3, 2*a + 4, 2, 0, 0, 0, 0, 0, 2*a, 4*a + 1)	F
(2*a, 0, 0, 0, 3*a + 4, 3*a + 4, a + 4, 1, 0, 0, 0, 0, 0, a + 2, 4*a + 3, 3*a, 0, 0, 0, 0, 0, 4, 0, 3*a + 4)	F
(a + 1, 4*a + 1, 0, a + 4, 0, 0, 0, 0, 1, 3*a, 4, 2*a + 3, a, 0, 0, 0, 0, 2*a + 4, 0, 0, 4*a + 2, 0, 0, 0)	F
(4*a, 3, 0, 0, 0, 0, 0, 0, 0, 3*a, 2, 1, 0, 2*a + 2, 0, 0, 0, 4*a + 4, 0, 4*a + 3, 0, a + 1, 4*a + 1, 0)	F
(0, 0, 0, 0, a + 1, 4*a + 1, 0, 3*a, 0, 0, 0, 0, 3, 0, 0, 2*a + 4, 4*a + 2, 0, a + 4, 2*a, 0, 3*a + 2, 2, 0)	F
(0, 0, 0, 3*a + 2, a + 3, 0, 2*a + 1, 3*a, a + 1, 2*a + 2, 2*a + 4, 0, 0, 0, 2*a, 0, 4*a + 3, 0, 0, 0, 2*a + 1, 0, 0, 0)	F
(3*a + 1, 0, 3*a + 2, 0, 0, 0, 0, 2, 3*a, 4*a + 3, 0, 0, 3*a + 4, 0, 0, 4*a + 4, a + 2, 0, 0, 0, 4*a + 3, 4, 0, 0)	F
(1, 0, 0, 0, 2*a + 4, 0, 0, 4*a + 3, 0, 1, 3*a + 4, 0, 2*a + 1, 0, a + 2, 2, 0, 4*a + 2, 0, 0, 0, 0, 1, 0)	F
(0, 0, a + 2, 2*a + 3, 0, 2*a + 3, 4*a + 2, 0, 2*a + 2, 0, 0, 0, 3*a + 3, 0, 0, 0, 3*a + 3, 3, 0, 0, 3*a, a + 2, 0, 0)	F
(0, 0, 0, 0, 0, 3*a, 0, 0, 1, 0, 0, 3*a + 4, 0, 1, 0, 0, 2, 3*a + 1, a + 2, a + 4, 0, 0, 3, 3)	F
(0, 0, 0, 0, a + 3, 4*a + 4, 0, 0, 0, 0, 0, a, 4, a + 1, a + 3, 0, 0, 2*a + 4, 0, 2*a + 3, 0, 0, 2, 2*a + 3)	F
(a, 0, 2*a + 3, 1, 0, 3*a + 1, 2*a + 1, 3*a, 0, 0, 0, 0, 0, 4*a + 1, a + 3, 0, 0, 0, 0, 3*a + 2, 0, 0, 0, 2*a + 3)	F
(2*a + 1, 3*a + 1, a + 1, 1, 2*a + 3, 0, 0, 2*a, 0, 0, a + 3, 2*a, 0, 0, 0, 4*a + 2, 0, 0, 3*a + 2, 0, 0, 0, 0, 0)	F
(4, 0, 0, 3*a + 1, 0, 0, 0, 0, 3*a + 4, 0, 0, 0, 2, 3*a, a + 1, 0, 0, 0, 2*a, a + 1, 0, 2*a + 3, 3*a + 1, 0)	F
(0, 0, 4*a + 1, 0, 0, 0, 2*a + 1, 4*a + 4, 0, 0, 4*a + 1, 0, a, 4*a, 0, 2*a + 4, 0, 2*a + 4, 0, 0, 4*a + 3, 0, 4*a + 1, 0)	F
(0, 0, a + 2, 2*a + 1, 0, 0, 0, 0, 4*a + 1, 0, 4*a + 1, 4, 0, 0, 1, 0, 0, 4*a + 3, 4*a, 0, 4*a + 1, 0, a + 3, 0)	F
(1, 4, 4, 0, 0, 0, 4*a + 4, 2*a + 2, a + 4, 0, 2*a + 1, 0, 0, 0, 0, 2*a + 4, 0, 0, 0, 2*a + 3, 3*a + 3, 0, 0, 0)	F
(0, 2*a, 0, a + 3, 0, 4*a + 2, 0, 4*a + 2, 2*a + 4, 0, 0, 2*a + 3, 0, 0, 0, 0, 0, 4, 2*a + 3, 0, 0, 4*a + 2, 3, 0)	F
(3, 0, 0, 4, 0, 0, 0, a + 4, 2, 0, 0, 0, 0, 0, 0, 4, 0, 4*a, 0, 4*a + 4, 4*a + 2, 1, 1, 0)	F
(0, 2*a + 1, 0, 2*a + 4, 0, 3*a + 3, 2*a, 4*a, a + 3, 0, 0, 2*a, 0, 0, 0, 0, 0, 0, 0, 3*a + 2, 4*a + 1, 0, 2*a + 2, 0)	F
(0, a + 1, 1, a + 2, 0, 0, 2*a + 1, 0, 0, 0, 4*a + 3, 4*a, 2*a + 1, 0, 0, 2*a + 3, 0, 0, 0, 3*a + 1, 0, 3, 0, 0)	F
(a + 3, 0, 0, 0, 0, a + 3, 2, 0, 0, a + 1, 2, 0, 4*a + 1, 3, 4*a + 3, 0, 4*a, 0, 0, 0, 0, 0, 0, 2*a + 2)	F
(0, 4*a + 4, 3*a, 3*a + 3, 0, 4, 0, 2*a, 0, 3*a + 1, 0, 2*a + 2, 4*a + 3, 0, 0, 0, 4, 0, 3*a + 2, 0, 0, 0, 0, 0)	F
(4*a, 0, 3*a + 2, 0, 0, 0, 2*a, 0, 0, a + 1, 0, 0, 2*a + 4, 0, 4*a + 1, 2*a + 1, 0, 3*a + 2, 0, 0, 0, 0, 3*a + 4, 2*a)	F
(a + 2, 0, 0, 0, 0, 4, 0, 4*a + 1, 0, 2, 2*a + 4, 0, 0, 0, 0, 0, 0, 4*a + 3, 3*a + 4, 0, 4*a + 4, 4*a + 1, 4*a, 0)	F
(0, 0, 2, 2*a + 2, 0, 0, 4*a + 2, a, 4*a + 3, 0, 3*a + 2, a + 3, 0, 0, 2*a, a + 4, 0, 1, 0, 0, 0, 0, 0, 0)	F
(1, 4*a + 2, 0, 0, 3*a + 4, 4*a + 4, 0, 0, 4*a + 4, 0, 0, 3*a + 4, 0, 0, 2*a, 3*a + 4, 0, 0, 0, 3*a + 4, 0, 0, 4*a + 3, 0)	F
(0, 0, a + 1, 4*a + 2, 0, 0, 0, 0, 4, 0, 2, 2*a, 0, 4, 0, a, a, 3*a + 2, 0, 0, 0, 0, 0, a)	F
(3*a + 3, 0, 2*a + 1, 0, 3*a, 0, a + 1, 0, 0, 0, 0, 0, 2, a, 0, 4, a + 4, 3, 0, 4*a + 3, 0, 0, 0, 0)	F
(0, 2*a + 2, 3*a + 2, 0, 3*a + 4, 0, 0, 4*a + 2, a + 2, 2*a + 4, 0, 0, 1, 0, 0, a + 2, a + 3, 0, 0, 0, 0, 0, 0, 4*a + 2)	F
(0, a + 2, 4, 1, 2*a + 2, 0, 4*a + 4, 3*a + 1, 0, 3, 0, 0, 0, 0, 2, 0, 0, 0, 3*a, 0, 0, 0, 0, 1)	F
(0, 0, 0, 0, 1, 4, 4*a + 2, 4*a + 3, 0, 3*a + 2, 3*a, 0, 0, 0, 0, 1, 0, 4*a + 2, 0, 0, 0, 0, 4*a + 3, 3*a + 1)	F
(3*a + 3, 0, 0, 0, 0, 0, 0, a + 3, a, 0, 0, 2*a + 2, 3*a, a + 4, 2*a + 4, 0, 0, 0, 0, 0, 2*a + 1, 0, 3*a + 3, 4*a + 1)	F
(4*a + 2, 0, 0, 0, 0, 0, 2*a + 1, 0, 3, 4*a, 4*a + 4, 2*a + 1, 0, 3*a + 2, 0, 0, 2*a + 4, 0, 0, 4*a + 3, 2*a, 0, 0, 0)	F
