(0, 0, 0, a^4 + a^3, a^4 + a^2 + 1, 0, 0, a^4 + a^3 + a, 0, a^4 + a + 1, a^4 + a^3, 0, 0, 0, 1, 0, a^4 + a^3 + a^2, 0, 0, a^4, a^4, a^3 + a^2 + 1, a^4 + a^3 + a^2 + a, a^2 + a + 1, 0, a^3, 0, 0, 1, 0, 0, 0)	C
(a^4 + a, a^3 + 1, 0, 0, 0, 0, a^3 + a, a^2, a^2 + a + 1, 0, 0, 0, a + 1, 0, 0, 0, 0, 0, 0, a^3, a^4 + a, 0, a^4 + a^2, a^3 + a^2 + 1, a^4 + a^3 + 1, a^3 + a^2, 0, a^3 + a^2, 0, 0, 0, a^2)	C
(a^4 + a^3, a^2 + a, 0, a^3 + a^2 + a + 1, a^3 + a^2 + 1, 0, 0, a^4, a^2 + 1, 0, 0, a^4 + a^3 + a^2 + a + 1, 0, a^4 + a^3 + a^2, 0, a^2 + a + 1, 0, 0, a^4 + a^3 + 1, 0, 0, a^4 + a, a^4 + a^2 + a + 1, 0, 0, 0, 0, a + 1, 0, 0, 0, a^4 + a^3 + a^2 + 1)	C
(a^4 + a^3 + a^2, a^3 + a^2, 0, 0, 0, 0, 0, 0, a^4 + a^2 + a + 1, a^2 + a, a^3 + 1, a^4 + a^3 + a^2 + a + 1, a^3 + a^2 + 1, a^4 + a^2 + a, 0, a^4 + a + 1, 0, 0, a + 1, 0, 0, 0, 0, a + 1, a^4 + a^2 + a + 1, 0, 0, 0, a^4 + 1, a^4 + a^2 + a + 1, 0, 0)	C
(a^4 + a + 1, 0, 0, 0, a^3, a^3, 0, 0, 0, 0, a^4 + a^3, a^3 + a + 1, a^4 + a^3 + a + 1, 0, a^3 + a^2 + a, 0, 0, 0, 0, 0, a, a^3, 0, a^4 + a^2 + a, 0, 0, a^3, a^4 + a^2, 0, 0, a^4 + a^3 + a^2, a^4 + a^3 + a^2 + 1)	C
(0, 0, 0, a^4 + a^2, a^4 + a^2 + a + 1, 0, a^4 + a^2 + a, 0, a^4 + a^2 + a, a^4 + a^3 + a^2 + a + 1, a^2 + 1, 0, 0, 0, a^3 + a + 1, 0, 0, a^3, 0, a, a + 1, 0, a^4 + a, 0, 0, 0, a^3 + a + 1, 0, a^2 + a + 1, 0, a^3 + a^2 + a, 0)	C
(a^4 + a^3 + a^2 + 1, 0, a^4 + a^3 + a, a^3 + a^2 + a + 1, a, 0, 0, a^2 + a + 1, a^4 + a^3 + 1, a + 1, 0, a + 1, 0, 0, 0, 0, 0, 0, 0, a + 1, a^4, a^3 + a, 0, 0, a^4 + a^3 + a + 1, 0, 0, a^4 + a^2 + a, 0, 0, a^3 + a, 0)	C
(0, a^4 + a^3 + a^2 + a + 1, a + 1, 0, a^3 + a + 1, a^4 + a^2 + a + 1, a^4 + a^3, 0, 0, a^3, a^4 + a + 1, a^4 + a, a^4 + a^3 + a + 1, 0, 0, 0, a + 1, 0, 0, 0, a^4 + a^3 + a^2 + 1, 1, a^4 + a^2 + 1, 0, a^3, 0, 0, 0, 0, 0, 0, 0)	C
(0, 0, 0, a^4 + a^3 + a^2, 0, a^3 + 1, 0, 0, a^4 + a^2 + a, a^4 + a^3 + a^2 + 1, a^4 + a^3 + a + 1, 0, 0, a^4 + a^3 + a^2 + 1, a^2 + a + 1, a^4, 0, 0, a^4 + a^3 + a + 1, 0, a^4 + a^3 + a^2 + a, a^2 + a, 0, 0, a^4 + a^3 + a^2 + a, 0, 0, a^4 + a^3 + a^2, 0, 0, a^3 + a^2 + a + 1, 0)	C
(a^4 + 1, 0, a^4 + 1, 0, a^4, a^4 + a^3 + a^2 + a, a^4 + a^3 + a + 1, a^4 + 1, 0, 0, a^4 + a^2 + 1, 0, 0, 0, a^4, a^4 + a^3 + a^2 + a + 1, 0, 0, 0, a^3 + a^2 + a, 0, a, 0, 0, a^2 + 1, 0, a^3 + a^2 + a + 1, 0, 0, 0, 0, a^4 + a)	C
(0, 0, a^4 + a^2 + 1, 0, a^4 + a, 0, 0, a^4 + 1, 0, 0, a + 1, a^4 + a^3 + a^2, a^4 + a^2 + 1, 0, 0, a^4 + a^2 + a + 1, 0, 0, a^4 + a^3 + a^2 + a + 1, 0, 1, 0, 0, 0, a^4 + a^2, 0, a^3 + a^2 + a, a^4 + a, a^4 + 1, 0, 0, a^2 + a + 1)	C
(0, a^2 + 1, 0, 0, a^4 + a + 1, 0, 0, 0, a^3 + a^2, 0, 0, a^3 + a^2 + a + 1, 0, 0, a^4 + a^3 + a^2 + 1, a^4 + a^3, a^4 + a, 0, a^2 + a + 1, a^3 + a^2, a^4 + a^2, 0, a^4 + a^2 + a, 0, a + 1, 0, a^4 + a + 1, 0, a^4 + a^2 + 1, 0, 0, 0)	C
(a^4 + a^3 + a^2 + a + 1, a^3, 0, a^4 + a^3 + a^2 + a + 1, 0, 0, 0, 0, 0, 0, a^4 + a^3 + a, 0, 0, 0, a^2 + 1, a^4, 0, a^4 + a^3 + a + 1, 0, a^4 + a, a^3 + a^2 + a, 0, a^3 + a, 0, 0, a^3 + a, 0, a, a^4, 0, 0, a^4 + a^3)	C
(0, 0, 0, 0, a^3, 0, 0, 0, a^4 + a^3 + 1, a^4 + a^3 + 1, 0, 0, a^4 + 1, 0, a^2, 0, 0, 0, 0, a^3 + a^2 + a, a^4 + a + 1, a^4 + a^2, 0, 0, a^2 + a + 1, a^2 + a, a^4 + a^3 + a, a^2 + a, 0, a^4 + a, 0, a^4 + a^3 + 1)	C
(0, a^4 + a^2 + a, a^4 + a^3 + a^2 + a + 1, 0, a^2 + 1, 1, 0, 0, 0, 0, 0, a^3 + a^2, a^4, 0, 0, 0, a^3 + a^2 + a + 1, 0, 0, 0, 0, a^4 + a, 0, 0, a^4 + 1, 0, a^4, a^4 + a^2 + 1, 0, a^3 + a^2 + a, a^4 + a^3 + 1, a^3 + a^2 + a)	C
(0, 0, 0, a^4 + a^2 + a, a^4 + a^2 + a + 1, a^4 + a^3 + a + 1, 0, a^2 + a + 1, 0, 0, 1, 0, a^2 + a, a^4 + a^3 + 1, a^4 + a^3 + a^2 + 1, a^2 + a + 1, 0, a^4 + a, 0, a^4 + a^3 + a^2, 0, a^4 + 1, 0, 0, 0, 0, 0, 0, a^3 + a, 0, 0, a^2 + 1)	C
(0, 0, 0, 0, 0, 0, a^3 + a^2 + 1, 0, a^3 + a^2, 0, 0, a^4 + a^3 + a^2 + a + 1, a^4 + a^2 + 1, a^4 + a + 1, 0, 1, 1, a^4 + a^3 + a + 1, a^3, a^2 + a, 0, a^4 + a^3 + a^2 + 1, 0, 0, 0, 0, a^4 + 1, 0, 0, 0, a^4 + a^3 + a, a^4 + a^2 + 1)	C
(0, 0, a^4 + a^3 + a + 1, a^4, 0, 0, 0, a^4 + a^2, a^4 + a^3 + a^2 + 1, 0, 0, a^2, 0, a^2 + a + 1, a^4 + 1, 0, 0, 0, a^2 + a + 1, 0, 0, 1, a^2 + 1, 0, a^4, a^2 + a, 0, a^4, a + 1, 0, 0, 0)	C
(0, 0, a^4 + a + 1, a^4 + 1, 0, 0, a^4 + a^2 + a + 1, 0, a^3 + a^2 + a, a^3 + a^2 + a, 0, a^4 + 1, 1, a^3 + a^2 + a, a^4 + a, 0, 0, 0, 0, a^4, a^4 + a^2 + a + 1, a^4 + 1, 0, 0, 0, a^4 + a + 1, 0, 0, 0, 0, a^4 + a + 1, 0)	C
(a^3 + 1, 0, 0, a^4 + a^2, a^4 + a^3 + a, 0, 0, 0, a^3 + 1, a^4 + a^3 + a^2, 0, 0, a^4 + a, a^4 + a^3 + a^2, 0, 0, a^4 + a^3, 0, 0, 0, a^2 + a + 1, a^4 + a, a^4 + a^3 + a^2, a^4 + a^3 + a^2 + 1, 0, 0, 0, 0, a^3 + a + 1, a^2 + a, 0, 0)	C
(0, 0, 0, 0, 0, a^3 + a^2 + 1, a, a^3 + a^2, a^4, 0, a^4 + 1, 0, a^3 + a + 1, 0, a^4 + 1, 0, a^2, a^2, 0, a^4 + a^3 + a^2 + a, a^4 + a^3 + a^2 + a, a^3 + 1, 0, 0, a^4 + a^3, 0, 0, 0, 0, 0, 0, a^2 + a + 1)	C
(0, 0, a^2 + a, a^4 + a^3 + a^2 + a, 0, 0, 0, 0, a^4 + a^3 + 1, a^2 + a + 1, a^2, 0, 0, a^4 + a^3 + a^2 + a, 0, 0, a^2 + a, 0, 0, a^4 + a + 1, 0, a^4 + a^3 + a^2 + a + 1, a^4 + 1, 0, a^4 + a^2 + a + 1, 0, 0, 0, a^4 + a^3, a^4 + a^3 + a + 1, a^4 + a^3 + a^2 + a + 1, 0)	C
(0, 0, 0, 0, a^3 + a^2 + a + 1, 0, a, 0, 0, 0, a^4 + a^2 + 1, a^4 + a^2, 0, a^4 + a^2 + a, 0, 0, a^2, 0, a^4 + a^3 + a + 1, 0, 0, a^4 + a, a^3 + a^2 + a, 0, 0, a^3, 0, a^4 + a^2 + a, a^3 + a^2 + 1, a^4 + a^2 + 1, a^2, 0)	C
(a^4 + a^3 + a^2 + 1, a^3 + a^2 + a, a^4 + a^3 + a^2 + 1, 0, a^2 + 1, a^4 + a^3 + a, 0, a^3 + a^2 + a + 1, a^4 + a, 0, 0, a^4 + a + 1, 0, 0, a^4 + a, 0, 0, 0, a^4 + a^3, a^4, 0, 0, 0, 0, 0, a^4 + a^3 + a^2 + a + 1, 0, 0, a^4 + a^3, 0, a^4 + a^3 + a^2 + a, 0)	C
(0, a^4 + a^3 + a^2 + a, 0, 0, 0, a^2 + a + 1, 0, a^3, 0, a^3 + a^2 + a, a^4 + a^3 + 1, a^3 + a^2 + a, 0, 0, a^3 + 1, a^2, 0, 0, 0, a^3 + a^2, 0, 0, 0, 0, 0, a^4 + a, a^4 + a^3, a^4 + a^2 + 1, 0, a^3 + a, a^4 + a^3 + a, 0)	C
(0, 0, 0, a^2, a^3 + a + 1, 0, 0, 0, 0, 0, a^4 + a^3, a^4 + 1, a^4 + a^2, a^4 + 1, 0, 0, a^2 + 1, 1, 0, 0, a^3 + a^2 + a + 1, a^4 + 1, 0, 0, 0, 0, a^2, a^2 + a + 1, 0, a^4 + a^3 + a, 0, a)	C
(0, 0, a^4 + a^3 + a, a^2, 0, 0, 0, a^4 + a^3, a^4 + a^3 + 1, 0, a^4 + 1, 0, 0, 0, 0, 0, 0, 0, 0, a^4 + a + 1, 0, 0, 0, a^2 + a, a^4 + a^3 + a^2 + a, a^4 + 1, a^3 + a^2 + 1, a^4 + a^2 + 1, a^4 + a^3 + 1, a^3 + a + 1, a^4 + a^3, 0)	C
(0, 0, a^4 + a^2 + a, a^3 + 1, 0, a^2, a^4 + a^2 + a + 1, 0, a^3 + a^2 + a + 1, a^3 + 1, 1, a^4 + a^3 + a, a, 0, 0, 0, a^4 + a^3 + a + 1, 0, a^4 + a^3 + 1, 0, 0, 1, 0, 0, 0, a^3 + 1, 0, 0, 0, 0, a^3 + a, 0)	C
(a^3 + 1, 0, a^3 + a^2 + 1, 0, a^3 + a, 0, 0, 0, a^3 + 1, a^4 + a^2, a, 0, 0, a^3 + a^2 + a + 1, 0, 0, a^3 + a^2 + 1, a^4 + a^3 + a^2 + a + 1, a^3 + 1, 0, 0, a^4 + a^3, 0, 0, 0, 0, 0, a^4 + 1, a^3 + a, 0, 0, a^4 + a^3 + a^2 + a)	C
(0, a^3 + a + 1, 0, 0, a^4 + a^2 + a, 0, 0, a^3 + a + 1, 0, a^3 + a^2 + a, a^3, 0, a^4 + a^3, 1, a^4 + a^2 + a, 0, 0, 0, a^4 + a^3 + a^2, 0, 0, 0, a^3 + a^2, 0, 0, a^4, a^4 + a^3 + a^2 + a + 1, 0, 0, a^4 + a^3 + a + 1, a^4 + a^2, 0)	C
(a + 1, 0, 0, 0, 0, a^4 + a^3 + a, a^4 + a, a^4 + a^2, 0, 1, 0, a^3 + a^2 + 1, 0, a^4 + a^2 + 1, 0, 0, 0, 0, a^4 + a^2 + 1, a^3 + a^2 + 1, 0, a^4 + a + 1, a^4 + a^2 + a + 1, 0, a^3, 0, 0, 0, 0, 0, a^3 + 1, a)	C
(0, 0, 0, 0, a^4 + a^2 + a, a^4 + a^2 + 1, 0, 0, a^4, 0, 0, 0, a^3 + a, 0, a^3 + a^2 + a + 1, 0, a^4 + a^3 + a^2, a, 0, a^3 + a, a^4 + a^3 + a^2 + a, 0, 0, a^4 + a^3 + a, 0, 1, a^3 + a^2 + 1, 0, a^2 + 1, 0, a^4 + a^3 + a^2 + a, 0)	C
(0, a^3 + a, 0, 0, a + 1, 0, 0, 0, a^3 + a, 0, 0, 0, a^3 + a^2 + 1, 0, a, a^2 + a, 0, 0, a^2 + 1, 0, a^4 + a^3 + a^2, a^3 + a^2, a^4 + a^3 + a, 0, 1, a^4 + a^2 + a, a + 1, a^4 + a^2 + a + 1, 0, 0, 0, 0)	C
(0, 0, 0, a^2 + 1, 0, a^2 + a, 0, a^4 + a^3 + a + 1, a^4 + a^3, 0, a^4 + a^2 + a, 0, 0, 0, 0, a^3 + a^2 + 1, 0, 0, a^4 + a^3, a^4, a^4 + a^3 + a^2 + a, 0, a^2 + a, a^4 + a^3 + 1, 0, a^4 + a^3, 0, 0, 0, 0, a, a^3 + a)	C
(a^3 + a^2, 0, a^4 + a, 0, a^4 + a^3 + a^2 + a, 0, a^3 + 1, 0, a^4 + a^3 + a + 1, 0, 0, 0, 0, 0, a^4 + a^3 + a^2 + a, 0, 0, a^4 + a^2 + 1, 0, a^4 + a + 1, a^3 + a^2 + a, a + 1, 0, 0, 0, 0, a^4 + a^3 + a^2 + a, a^2 + a, 0, 0, a^4 + a^2 + a, a)	C
(a + 1, 0, 0, a^2 + a + 1, 0, 0, 0, 0, a + 1, 0, a^4 + a, a^4 + a^2, a^4 + a^3 + a, a + 1, a^3 + a^2 + 1, 0, a^3 + a^2 + 1, 0, a^4 + a + 1, 0, a^4 + a^2 + a, 0, a^4 + a + 1, 0, 0, 0, a^4 + a^2 + a, 0, 0, 0, a^4 + 1, 0)	C
(0, 0, a^4 + a^3 + a, 0, a^3 + a, 0, 0, 0, a^3 + a, 0, 0, a^4 + a^3, a^2 + a + 1, a^4 + a^3 + a + 1, 0, a^4 + a^2 + 1, 0, a^4 + a, a, a^3 + a + 1, 0, 0, a^3 + a^2 + a + 1, 0, 0, 0, 0, a^4 + a^3, a^2 + a + 1, a^4 + a^3 + a^2 + a, 0, 0)	C
(a^3 + a^2, a^2 + a, 0, a^4 + a^2 + 1, 0, a^4 + a^3 + 1, a^4, 0, 0, 0, 0, 0, 0, 0, a^2 + a, a^3 + 1, a^4 + a + 1, a^4 + a^3 + a^2 + 1, a^3, a^3 + a^2 + a + 1, 0, a^3 + a + 1, 0, a^3 + a^2 + 1, 0, 0, 0, 0, 0, 0, a^4, 0)	C
(0, a^4, 0, 0, 0, 0, a, 0, 0, a^4, 0, a^4 + a^3, 0, 1, 0, 0, a^4 + a^2 + a, a^2 + 1, 0, a^4 + a^2 + a + 1, a^3 + a^2, 0, 0, a^2 + 1, a^4 + a^2, a, a^3 + a^2 + a, 0, a^4 + a^2 + a, 0, 0, 0)	C
(a^4 + 1, a^2, 0, a^4 + a^3 + a^2, 0, a^3, 0, 0, a^4 + a^3 + a^2, a^4 + a^2 + a, 0, 0, 0, 1, 0, 0, 0, a^3 + a, a^3 + 1, a^2 + a, a^4 + a, a^4 + a^3 + a^2 + a, 0, 0, 0, 0, 0, a^4, 0, 0, 0, a^2 + a + 1)	C
(0, a^2 + a + 1, 0, 0, 0, a^4 + a^3 + a^2 + 1, 0, 0, 0, a^2 + a + 1, a^3 + a, a^4 + 1, 0, 0, a^4 + a + 1, a^4 + a^3 + a^2, a^4 + a^2 + a + 1, 0, a^4 + a^3 + a + 1, 0, a^3, 0, a^3 + a^2 + a, a^4, 0, 0, 0, a^3 + a^2 + a, a^4 + a^3 + a + 1, 0, 0, 0)	C
(a^3 + a^2 + a, 0, 0, a^4 + a^3 + a^2, 0, a^4 + a^3 + a^2 + a + 1, a^2 + a, a^4 + a^2 + 1, a^3 + a^2 + a + 1, 0, a^4 + a^3 + a + 1, 0, a + 1, 0, 0, 0, 0, 0, a^4 + a^3, a^3 + a^2 + 1, 0, a^4, a^4 + a^3 + a^2, 0, 0, a^4 + a^3 + a^2 + 1, 0, 0, a^4 + a^3 + a^2 + a, 0, 0, 0)	C
